EESchema Schematic File Version 2
LIBS:power
LIBS:device
LIBS:transistors
LIBS:conn
LIBS:linear
LIBS:regul
LIBS:74xx
LIBS:cmos4000
LIBS:adc-dac
LIBS:memory
LIBS:xilinx
LIBS:microcontrollers
LIBS:dsp
LIBS:microchip
LIBS:analog_switches
LIBS:motorola
LIBS:texas
LIBS:intel
LIBS:audio
LIBS:interface
LIBS:digital-audio
LIBS:philips
LIBS:display
LIBS:cypress
LIBS:siliconi
LIBS:opto
LIBS:atmel
LIBS:contrib
LIBS:valves
LIBS:hetii
LIBS:udadac-cache
EELAYER 25 0
EELAYER END
$Descr A4 11693 8268
encoding utf-8
Sheet 1 1
Title ""
Date ""
Rev ""
Comp ""
Comment1 ""
Comment2 ""
Comment3 ""
Comment4 ""
$EndDescr
$Comp
L UDA1330ATS U1
U 1 1 56E7254E
P 4025 2900
F 0 "U1" H 4025 3000 50  0000 C CNN
F 1 "UDA1330ATS" H 4025 2900 50  0000 C CNN
F 2 "SSOP:ssop16" H 3975 2550 50  0001 C CNN
F 3 "" H 3975 2550 50  0000 C CNN
	1    4025 2900
	1    0    0    -1  
$EndComp
$Comp
L CP C9
U 1 1 56E72568
P 5525 2250
F 0 "C9" H 5550 2350 50  0000 L CNN
F 1 "47uF" H 5550 2150 50  0000 L CNN
F 2 "Capacitors_ThroughHole:C_Radial_D5_L11_P2.5" H 5563 2100 50  0001 C CNN
F 3 "" H 5525 2250 50  0000 C CNN
	1    5525 2250
	0    -1   -1   0   
$EndComp
$Comp
L CP C10
U 1 1 56E725DF
P 5525 2500
F 0 "C10" H 5550 2600 50  0000 L CNN
F 1 "47uF" H 5550 2400 50  0000 L CNN
F 2 "Capacitors_ThroughHole:C_Radial_D5_L11_P2.5" H 5563 2350 50  0001 C CNN
F 3 "" H 5525 2500 50  0000 C CNN
	1    5525 2500
	0    -1   -1   0   
$EndComp
$Comp
L R R7
U 1 1 56E72679
P 6475 2700
F 0 "R7" V 6555 2700 50  0000 C CNN
F 1 "10k" V 6475 2700 50  0000 C CNN
F 2 "Resistors_SMD:R_1206_HandSoldering" V 6405 2700 50  0001 C CNN
F 3 "" H 6475 2700 50  0000 C CNN
	1    6475 2700
	0    1    1    0   
$EndComp
$Comp
L R R4
U 1 1 56E726D6
P 6475 2050
F 0 "R4" V 6555 2050 50  0000 C CNN
F 1 "10k" V 6475 2050 50  0000 C CNN
F 2 "Resistors_SMD:R_1206_HandSoldering" V 6405 2050 50  0001 C CNN
F 3 "" H 6475 2050 50  0000 C CNN
	1    6475 2050
	0    1    1    0   
$EndComp
$Comp
L R R5
U 1 1 56E72784
P 6475 2250
F 0 "R5" V 6555 2250 50  0000 C CNN
F 1 "100" V 6475 2250 50  0000 C CNN
F 2 "Resistors_SMD:R_1206_HandSoldering" V 6405 2250 50  0001 C CNN
F 3 "" H 6475 2250 50  0000 C CNN
	1    6475 2250
	0    1    1    0   
$EndComp
$Comp
L R R6
U 1 1 56E727D3
P 6475 2500
F 0 "R6" V 6555 2500 50  0000 C CNN
F 1 "100" V 6475 2500 50  0000 C CNN
F 2 "Resistors_SMD:R_1206_HandSoldering" V 6405 2500 50  0001 C CNN
F 3 "" H 6475 2500 50  0000 C CNN
	1    6475 2500
	0    1    1    0   
$EndComp
$Comp
L C C7
U 1 1 56E7295B
P 5075 3100
F 0 "C7" H 5100 3200 50  0000 L CNN
F 1 "100nF" H 5100 3000 50  0000 L CNN
F 2 "Capacitors_SMD:C_1206_HandSoldering" H 5113 2950 50  0001 C CNN
F 3 "" H 5075 3100 50  0000 C CNN
	1    5075 3100
	1    0    0    -1  
$EndComp
$Comp
L CP C8
U 1 1 56E72A1E
P 5325 3100
F 0 "C8" H 5350 3200 50  0000 L CNN
F 1 "47uF" H 5350 3000 50  0000 L CNN
F 2 "Capacitors_ThroughHole:C_Radial_D5_L11_P2.5" H 5363 2950 50  0001 C CNN
F 3 "" H 5325 3100 50  0000 C CNN
	1    5325 3100
	1    0    0    -1  
$EndComp
$Comp
L GND #PWR01
U 1 1 56E72AE7
P 5325 3400
F 0 "#PWR01" H 5325 3150 50  0001 C CNN
F 1 "GND" H 5325 3250 50  0000 C CNN
F 2 "" H 5325 3400 50  0000 C CNN
F 3 "" H 5325 3400 50  0000 C CNN
	1    5325 3400
	1    0    0    -1  
$EndComp
$Comp
L C C11
U 1 1 56E72CC1
P 5575 3100
F 0 "C11" H 5600 3200 50  0000 L CNN
F 1 "100nF" H 5600 3000 50  0000 L CNN
F 2 "Capacitors_SMD:C_1206_HandSoldering" H 5613 2950 50  0001 C CNN
F 3 "" H 5575 3100 50  0000 C CNN
	1    5575 3100
	1    0    0    -1  
$EndComp
$Comp
L CP C12
U 1 1 56E72D20
P 5825 3100
F 0 "C12" H 5850 3200 50  0000 L CNN
F 1 "100uF" H 5850 3000 50  0000 L CNN
F 2 "Capacitors_ThroughHole:C_Radial_D5_L11_P2.5" H 5863 2950 50  0001 C CNN
F 3 "" H 5825 3100 50  0000 C CNN
	1    5825 3100
	1    0    0    -1  
$EndComp
$Comp
L GND #PWR02
U 1 1 56E72EE6
P 3175 3550
F 0 "#PWR02" H 3175 3300 50  0001 C CNN
F 1 "GND" H 3175 3400 50  0000 C CNN
F 2 "" H 3175 3550 50  0000 C CNN
F 3 "" H 3175 3550 50  0000 C CNN
	1    3175 3550
	1    0    0    -1  
$EndComp
$Comp
L CP C6
U 1 1 56E73033
P 2875 3400
F 0 "C6" H 2900 3500 50  0000 L CNN
F 1 "10uF" H 2900 3300 50  0000 L CNN
F 2 "Capacitors_ThroughHole:C_Radial_D5_L11_P2.5" H 2913 3250 50  0001 C CNN
F 3 "" H 2875 3400 50  0000 C CNN
	1    2875 3400
	1    0    0    -1  
$EndComp
$Comp
L C C5
U 1 1 56E73080
P 2625 3400
F 0 "C5" H 2650 3500 50  0000 L CNN
F 1 "100nF" H 2650 3300 50  0000 L CNN
F 2 "Capacitors_SMD:C_1206_HandSoldering" H 2663 3250 50  0001 C CNN
F 3 "" H 2625 3400 50  0000 C CNN
	1    2625 3400
	1    0    0    -1  
$EndComp
$Comp
L CONN_01X06 P1
U 1 1 56E73486
P 1375 2600
F 0 "P1" H 1375 2950 50  0000 C CNN
F 1 "CONN_01X06" V 1475 2600 50  0000 C CNN
F 2 "Pin_Headers:Pin_Header_Straight_1x06" H 1375 2600 50  0001 C CNN
F 3 "" H 1375 2600 50  0000 C CNN
	1    1375 2600
	-1   0    0    1   
$EndComp
$Comp
L CONN_01X03 P2
U 1 1 56E73517
P 7075 2350
F 0 "P2" H 7075 2550 50  0000 C CNN
F 1 "CONN_01X03" V 7175 2350 50  0000 C CNN
F 2 "Pin_Headers:Pin_Header_Straight_1x03" H 7075 2350 50  0001 C CNN
F 3 "" H 7075 2350 50  0000 C CNN
	1    7075 2350
	1    0    0    -1  
$EndComp
$Comp
L GND #PWR03
U 1 1 56E73670
P 6725 2850
F 0 "#PWR03" H 6725 2600 50  0001 C CNN
F 1 "GND" H 6725 2700 50  0000 C CNN
F 2 "" H 6725 2850 50  0000 C CNN
F 3 "" H 6725 2850 50  0000 C CNN
	1    6725 2850
	1    0    0    -1  
$EndComp
$Comp
L R R1
U 1 1 56E73772
P 2775 2800
F 0 "R1" V 2855 2800 50  0000 C CNN
F 1 "10" V 2775 2800 50  0000 C CNN
F 2 "Resistors_SMD:R_1206_HandSoldering" V 2705 2800 50  0001 C CNN
F 3 "" H 2775 2800 50  0000 C CNN
	1    2775 2800
	0    1    1    0   
$EndComp
$Comp
L R R3
U 1 1 56E73BD8
P 4025 2050
F 0 "R3" V 4105 2050 50  0000 C CNN
F 1 "10" V 4025 2050 50  0000 C CNN
F 2 "Resistors_SMD:R_1206_HandSoldering" V 3955 2050 50  0001 C CNN
F 3 "" H 4025 2050 50  0000 C CNN
	1    4025 2050
	0    1    1    0   
$EndComp
$Comp
L C C3
U 1 1 56E73DA1
P 1775 3400
F 0 "C3" H 1800 3500 50  0000 L CNN
F 1 "100nF" H 1800 3300 50  0000 L CNN
F 2 "Capacitors_SMD:C_1206_HandSoldering" H 1813 3250 50  0001 C CNN
F 3 "" H 1775 3400 50  0000 C CNN
	1    1775 3400
	1    0    0    -1  
$EndComp
$Comp
L CP C1
U 1 1 56E73E36
P 1275 3400
F 0 "C1" H 1300 3500 50  0000 L CNN
F 1 "100uF" H 1300 3300 50  0000 L CNN
F 2 "Capacitors_ThroughHole:C_Radial_D5_L11_P2.5" H 1313 3250 50  0001 C CNN
F 3 "" H 1275 3400 50  0000 C CNN
	1    1275 3400
	1    0    0    -1  
$EndComp
$Comp
L C C2
U 1 1 56E7408D
P 1525 3400
F 0 "C2" H 1550 3500 50  0000 L CNN
F 1 "1nF" H 1550 3300 50  0000 L CNN
F 2 "Capacitors_SMD:C_1206_HandSoldering" H 1563 3250 50  0001 C CNN
F 3 "" H 1525 3400 50  0000 C CNN
	1    1525 3400
	1    0    0    -1  
$EndComp
$Comp
L C C13
U 1 1 56E74D17
P 6075 3100
F 0 "C13" H 6100 3200 50  0000 L CNN
F 1 "10nF" H 6100 3000 50  0000 L CNN
F 2 "Capacitors_SMD:C_1206_HandSoldering" H 6113 2950 50  0001 C CNN
F 3 "" H 6075 3100 50  0000 C CNN
	1    6075 3100
	1    0    0    -1  
$EndComp
$Comp
L C C4
U 1 1 56E750BC
P 2325 3400
F 0 "C4" H 2350 3500 50  0000 L CNN
F 1 "10pF" H 2350 3300 50  0000 L CNN
F 2 "Capacitors_SMD:C_1206_HandSoldering" H 2363 3250 50  0001 C CNN
F 3 "" H 2325 3400 50  0000 C CNN
	1    2325 3400
	1    0    0    -1  
$EndComp
$Comp
L R R2
U 1 1 56E75431
P 2775 3000
F 0 "R2" V 2855 3000 50  0000 C CNN
F 1 "100" V 2775 3000 50  0000 C CNN
F 2 "Resistors_SMD:R_1206_HandSoldering" V 2705 3000 50  0001 C CNN
F 3 "" H 2775 3000 50  0000 C CNN
	1    2775 3000
	0    1    1    0   
$EndComp
$Comp
L PWR_FLAG #FLG04
U 1 1 56E75EF9
P 3025 1950
F 0 "#FLG04" H 3025 2045 50  0001 C CNN
F 1 "PWR_FLAG" H 3025 2130 50  0000 C CNN
F 2 "" H 3025 1950 50  0000 C CNN
F 3 "" H 3025 1950 50  0000 C CNN
	1    3025 1950
	1    0    0    -1  
$EndComp
$Comp
L PWR_FLAG #FLG05
U 1 1 56E765ED
P 4875 1950
F 0 "#FLG05" H 4875 2045 50  0001 C CNN
F 1 "PWR_FLAG" H 4875 2130 50  0000 C CNN
F 2 "" H 4875 1950 50  0000 C CNN
F 3 "" H 4875 1950 50  0000 C CNN
	1    4875 1950
	1    0    0    -1  
$EndComp
$Comp
L PWR_FLAG #FLG06
U 1 1 56E76EF1
P 7175 2800
F 0 "#FLG06" H 7175 2895 50  0001 C CNN
F 1 "PWR_FLAG" H 7175 2980 50  0000 C CNN
F 2 "" H 7175 2800 50  0000 C CNN
F 3 "" H 7175 2800 50  0000 C CNN
	1    7175 2800
	1    0    0    -1  
$EndComp
Text Label 1575 2350 0    60   ~ 0
I2S_SCLK
Text Label 1575 2450 0    60   ~ 0
I2S_LRCLK
Text Label 1575 2550 0    60   ~ 0
I2S_DATA_OUTPUT
Text Label 1575 2650 0    60   ~ 0
I2S_MCLK
Text Label 1575 2750 0    60   ~ 0
GND
Text Label 1575 2850 0    60   ~ 0
+5V
$Bitmap
Pos 1575 1225
Scale 1,500000
Data
89 50 4E 47 0D 0A 1A 0A 00 00 00 0D 49 48 44 52 00 00 01 92 00 00 01 08 08 02 00 00 00 FA 1D E5 
88 00 00 00 03 73 42 49 54 08 08 08 DB E1 4F E0 00 00 00 09 70 48 59 73 00 00 0A F0 00 00 0A F0 
01 42 AC 34 98 00 00 20 00 49 44 41 54 78 9C EC 9D 77 58 13 4B 17 87 4F 36 21 81 00 A1 88 74 10 
51 11 B9 8A 85 80 80 15 14 14 10 EC 0D 7B 47 C4 86 5D F4 AA D8 2B E2 55 54 2C D7 72 ED A0 80 8A 
5D B1 37 C0 82 A2 A0 A0 54 A9 81 50 D2 48 76 BF 3F 82 94 90 D0 FD 34 3A EF 73 9F E7 CA EE CE EC 
D9 73 26 BF 9D 99 4C E6 90 08 82 80 06 81 E7 03 D6 A2 61 45 10 08 04 A2 F9 20 35 58 B6 10 08 04 
E2 A7 82 FD 6C 03 10 08 04 A2 61 20 D9 42 20 10 72 06 92 2D 04 02 21 67 20 D9 42 20 10 72 06 92 
2D 04 02 21 67 20 D9 42 20 10 72 06 92 2D 04 02 21 67 50 1A 5B 90 28 4E B8 73 F2 4E E2 B7 6F DF 
72 73 73 F3 F2 68 23 76 EF 18 A3 F6 D8 CB 69 79 8C 48 24 B1 16 CC E2 EF 6B C7 3C 5A D6 5F 20 71 
5E 4E 5A EA B7 A4 A8 FD 6B 83 A3 39 D0 71 ED 8D A3 83 5A D4 AF 74 D1 9D 19 8E CB 5E D5 38 DC 00 
03 4A 1E CE 71 5C F8 1C 07 B3 25 11 27 47 EB 93 EB 6D 33 02 81 F8 BF D1 68 D9 02 20 70 32 41 50 
79 29 A9 A9 79 A5 A5 2D 04 38 00 59 CD CC CA 82 CF 29 D7 2C 51 71 72 FC D7 52 00 20 63 A4 06 55 
CC 89 5E 3F 6A C1 53 91 D4 73 78 C9 FB B3 07 5E 9A CF 98 D8 4D 4D 2C 43 A2 DC 47 87 4F E6 F5 9F 
3D B8 8D 12 09 28 1A 1D 6C 3A 09 B9 D0 78 03 28 2D AD 9C 7A D3 B8 54 13 63 A5 86 19 8D 40 20 FE 
5F 34 5A B6 48 AA E6 CE B3 CC 9D 4B 9F 7E 19 F0 E8 93 40 A4 2C 22 00 E8 5D 7D F7 1D 2D 3F 8F 17 
DC 5F 35 7C D1 57 00 65 C7 09 F6 9A 0D 1A 8B 2A 75 98 B6 79 D3 A0 E2 F8 23 EB FF 4B 96 38 25 CA 
BA F9 CF DE B3 D1 65 CF 73 77 1F 5C D4 43 53 94 75 6B E3 F4 15 57 B2 54 3E 77 EE B5 B5 5F 0B 8C 
DE CD 37 E8 DF BA 0D E0 C4 AC 72 9D 75 BD 04 74 9D 87 B5 FB 7C EB 61 72 31 49 DD 62 F0 C2 0D 4B 
DD 8C A9 78 69 F2 E3 07 0F 4A 80 3D 70 39 E9 FB 65 86 1E E3 FF FA 1C 79 2B 9E 85 D3 5B 3B CF DD 
B2 7A 44 1B 25 52 59 CE 93 93 BB 0F 86 3E 7C 9F CD 05 C0 54 F4 3B F4 18 BF 76 CD A8 D6 D4 46 F9 
12 81 40 34 84 A6 CE 6D 11 22 41 59 59 19 8E 4B FC 42 88 28 8E D9 BF F9 66 11 00 A5 DB FC 05 7D 
1A A6 5A 40 6E D1 C5 D1 79 40 3F A6 4E CD 31 1A 59 7F C8 8E 60 EF 2E D4 2F E7 E6 4F 5E 7B FA B8 
DF A4 15 57 B2 54 ED 97 1C F6 77 94 18 46 D6 CB 80 9C 0F 59 2D EC 87 0C E9 A6 4E 14 C6 87 AD 59 
7E 26 A5 4C EA 65 E9 57 6E A6 AB 59 58 EA 91 80 F3 E5 E6 D6 F5 D7 B2 71 41 62 B0 D7 BC A0 9B EF 
8B DA 0C 9A 38 6D F2 28 97 AE 8C 6F 2F A3 B3 85 0D 7A 4A 04 02 D1 48 9A 30 48 2C 47 DA 4F 1A B9 
F1 FF 6E B8 98 07 00 6D 67 2C 1B 24 39 43 C4 7B BF 6F D1 D6 67 45 E5 E5 28 BA 2E AB 37 7A 9A D6 
BB 9B 82 A9 74 9C B2 E7 98 D2 B2 19 3B 23 77 FD 03 A0 E9 B8 FA F0 86 C1 C6 92 C5 6B 35 A0 82 4E 
B3 FD FD 9C D5 49 C5 56 85 AE 0B A2 B8 89 37 9E E5 8E 77 97 72 59 E7 0D A7 0E 3B 6B 94 7D 0A 1A 
39 F6 68 06 64 7C C8 11 38 B3 13 32 01 00 C8 8A AA 1A 06 16 E6 FD 46 F9 F8 29 0B 09 C5 FA 3E 03 
02 81 68 0A 4D 96 AD 1A 1D 2D 00 41 D2 99 0D 27 32 00 40 77 EC CA B1 35 05 49 C4 FE FC 2A FE 83 
E0 FB 9F D9 16 A5 78 43 6F 2A 12 96 95 97 11 96 09 45 38 01 50 6D 22 AA 0E 03 24 A1 6A EA A9 02 
70 A1 24 AF 44 FA 84 1A 90 00 80 C2 D0 65 00 64 00 2E C2 09 E5 6E B3 66 74 8B DB 1F 5B 1C 7D 26 
30 FA 0C 00 80 56 AF C5 41 5B C6 98 D2 1A FA 24 08 04 A2 C1 34 51 B6 04 B9 9F B3 71 00 00 05 45 
85 F2 81 98 30 3D 6C E3 C1 4F 00 A0 E6 B2 62 7A 47 7A CD 89 6D 65 FB 80 27 D1 8D BE 23 5E FC F6 
F0 3C AF E0 38 81 91 C7 92 E1 DC E3 BB 6F 6D 9E E4 CB 3F BC 63 AC 59 C5 9D EA 34 40 02 11 2B 3E 
2E 07 00 48 DA AD 35 29 50 2C F3 3A 52 E5 C4 7E 19 4F D9 3D F0 C6 F0 EC F7 6F DE 25 C4 3F 0F 3F 
71 ED 53 DE C3 E0 93 F1 83 D7 74 55 6A F4 83 21 10 88 7A D2 48 D9 0A 9B E9 7A AC 54 47 4D F8 ED 
43 52 1E 00 80 A9 83 8D 16 19 00 00 CF B9 B9 6D CF 5B 11 00 CD CE 77 AE 9D 5A A3 A6 CE 04 C9 17 
F6 9C FA 50 94 F9 51 04 00 F0 E5 E2 CE 0D B1 EA ED C6 CE 1F DB 8E 06 A2 CC B0 C5 5E C1 71 C2 B6 
E3 F6 06 CD B7 D5 C4 1D F4 95 67 2C 0D DB 35 73 8D 4E E8 D6 7E 2D B0 06 1A 90 F8 DF 96 F5 4F F1 
AF 8F EF BE 03 00 B5 01 93 EC 35 31 48 A9 87 81 38 FB F1 9A C1 DB 4B BB 39 74 EF 60 A0 86 8B 97 
7B 60 AD 3A 68 2B 34 E6 69 11 08 44 03 69 A4 6C D1 E9 82 8C D8 B8 74 00 A0 6A 99 F7 1A E1 BD 68 
72 1B 2A 00 E0 05 8F 76 EF 78 C2 03 C0 2C BC 97 38 6B 37 72 BE 5F 90 F9 E0 42 78 C5 02 88 D2 B7 
37 23 DE 82 55 1F EF B1 ED 68 40 D6 1B B0 70 61 7A 6C FB C9 63 2C 19 18 00 A6 ED B8 F2 DF 7D FA 
A7 73 1D 7B 8A 67 DD 1B 66 00 A9 2C F5 D9 B5 C4 1C 21 5D BF AB CB CC 15 0B 7A AA 63 C0 A9 8F 81 
24 E5 B6 FD 1C DA 5E 7C 76 E3 DC 73 11 00 A6 6A D8 CD 63 D4 EC B9 C3 0D 9A 3E 51 88 40 20 EA E6 
8F DC 26 F0 FB CA 86 CE 9B 6E 1F 76 56 47 EB B3 10 08 F9 02 FD B8 07 81 40 C8 19 7F 64 6F 0B 81 
40 C8 33 A8 B7 85 40 20 E4 0C 24 5B 08 04 42 CE 40 B2 85 40 20 E4 0C 24 5B 08 04 42 CE 68 B8 6C 
E1 39 17 27 30 A5 D2 67 65 34 87 13 B3 AA 2F 93 C9 64 4E BB 59 28 39 D5 5F F2 70 8E 0D 93 C9 64 
7A 9E CB 94 F1 1B 9A 6A F0 DE 6E 72 AE 56 7D F7 B9 8F 4A 00 84 DF 6E EE 5A 38 71 E8 80 3E B6 4C 
26 93 69 EF 3C D6 77 EF DD F4 F2 5F 0A E1 25 89 57 F7 2C 9E E0 D6 9B C9 64 32 99 76 7D 06 0C 9B 
B4 70 EB C5 4F 5C 79 FA D2 A1 81 5E 92 63 84 A9 27 46 31 99 4C A6 C7 DE 44 41 DD 57 FF 00 EA E3 
EA FF A7 91 B5 7C 76 7E 10 35 9F AE 79 6C C0 D9 EF 2E ED 5C E8 E9 D2 93 C9 64 32 99 36 8E 43 A6 
2C 0D BC 9C 58 82 03 CE CB 49 49 7C 73 37 D8 AB 37 93 C9 64 4E BE 92 2F ED 77 7D 84 48 20 10 08 
44 B5 DD BF 11 2B 24 15 B4 3A 74 ED 00 3C 20 F8 D9 1F 93 59 00 40 D1 37 6B A7 46 06 4C D3 54 95 
0C 25 B2 6F D5 B0 AD AC C8 9A 5D 06 BA 16 BE 7B 70 F7 6D 09 00 B5 5D 2F 87 4E D6 3A 0A 00 65 DF 
1E 5F 79 18 5F 44 D5 34 32 D5 60 27 A7 B3 3E 3D 38 B6 34 81 77 2C 74 71 47 22 FE C0 D4 89 47 93 
01 40 BD 4D D7 4E 2D C9 25 99 89 EF DF 3F 4C 25 1C A6 0E 69 27 3F 9B 67 A1 0D BF FE 6F 20 57 FF 
10 F0 BC BB 6B 27 2E 8D CC 01 00 50 D0 34 36 66 F0 D2 BF C6 DD 3D 99 6F E2 3A C0 4C AF 96 AD F4 
BE C3 7D B3 71 D0 F4 08 E5 C9 A7 43 7C CC 64 FD 9E B8 E1 B2 85 69 F4 5E 79 A8 37 00 08 53 4F 78 
0E DB 93 0C 58 B7 C5 C1 41 BD 55 C4 67 39 31 E2 FF 97 7E 8A DC 75 E9 4C E8 CB 6F 82 8A 3D AA AA 
6E 65 05 75 EF 57 A5 60 E8 EA EB DF EB DE CC BB 4B 62 01 8C DD 17 FB 7B 1A 90 01 A0 4C CF 79 59 
D0 8C DE 4C 43 25 0C F8 89 07 C6 78 1E 4E 83 EC A7 2F B2 CA DA 16 47 84 27 03 00 D9 7A D3 F9 20 
67 4D 12 00 E0 9C B4 A7 57 9E AA 2A 4A 34 4A BC E8 DD C5 BD 7B 4F DF 8E 4D 2D C2 41 51 C7 D2 79 
CA 12 DF 61 1D 54 84 5F CF FA 78 EE 88 15 80 F6 B0 7D 67 97 DB 50 3E EE 9F 3C F1 68 32 50 3A CD 
FB EF C0 44 FD 77 32 B7 E8 12 66 5E 59 BB 38 E8 C9 D7 DC 22 01 01 40 D5 68 DD CD 79 B2 AF 8F AB 
A9 12 09 1A B1 63 57 35 2F 81 30 EF C5 E9 C0 FD E7 A3 E2 B2 B8 00 74 FD AE FD C7 CD 9D 3F D2 52 
0D AB B5 66 89 87 8D 0F 3F 78 E0 42 54 5C 52 76 B1 08 63 18 5B B9 CC 5E B3 D0 49 97 D2 98 9A B9 
B5 DD 54 86 57 31 E9 36 AC 1E 5F BC 6C D8 9E 64 00 80 CC 63 9E F6 C7 80 62 1F 78 67 4F 0F 5A 5D 
56 99 CD 5C C2 7C 7D 2A E4 45 69 FF E0 CB FE DD E8 4D 8B 69 5D 0D 72 75 DF 57 33 6A 1A 69 53 5A 
8F AD D6 1A E3 DE 8A C2 44 C9 B3 55 C3 E6 5E 2F 82 D6 DE 17 4E 4F 6D AD 40 94 3C 5B E5 EE 73 A3 
18 EB B2 FA 72 F0 60 1D AC 49 77 A9 68 1E 78 CE C5 29 35 9E 6E 8B A2 CC CF 6F AD 21 AE 62 7B F4 
3F 1B 23 73 00 40 DB 6D C3 81 E5 03 8C 95 48 20 64 BD BD 78 20 14 A8 A4 DA B6 D2 6B 10 3F 6A 6E 
EB F3 BF 01 91 19 0A 0C 0A 54 EC 51 55 F5 6C 13 F6 AB 52 D0 EB 31 C0 C6 50 09 03 00 C0 14 A8 18 
00 00 59 DB 80 41 A6 A8 E9 AB 03 00 88 5E FA 79 4E 9C BF 66 D7 91 90 3B 71 05 2D EC 46 8D B2 54 
AD F6 41 E6 7D 0C 9E 39 79 CB C5 E8 D2 8E 9E 0B 96 78 0F D2 CF 7D 1B B1 C5 CB FF 3E 0B A7 9A 8C 
DA B2 C9 55 13 20 E7 E2 8A 8D 11 37 02 97 1D 4D 06 D0 70 DE B8 6D 7C DB CA 8D 1D A4 6C D1 85 73 
B3 33 CB 74 2C FB 0D F3 F4 1C 31 A0 B3 4A C1 97 67 E7 D6 2C 3E 9E 54 75 4C D1 B8 1D BB 08 CE DB 
3D D3 BD F7 5C 8B CB D2 B0 1F 3C C2 B5 9B 62 E6 AB 88 ED D3 BC 8F 55 AD BA 66 CD D5 AA E0 7D 3C 
34 73 E2 C6 73 4F 12 59 1A D6 03 DD 5D ED 75 0B A3 6F BF CC 11 36 B1 66 29 A7 64 7A 55 86 0D B9 
B4 BF 86 8E E9 A6 0C 00 40 FB 6B F0 E4 69 D3 66 0D 32 A6 D4 C3 AA C4 E0 ED A7 5F 64 0A 40 F2 31 
9B 12 53 90 D5 20 45 CA 35 8D 24 FE 0F 81 23 A9 74 1B 3F 44 0F 00 BE 84 5C FA C4 07 A2 F0 C5 D9 
A8 62 00 D5 FE 53 1D AA FC 5E AD C9 77 91 F2 74 15 BF AA 95 F2 F9 AD 25 C4 55 43 91 74 E3 31 1B 
00 C8 D6 F3 E7 3B 97 77 63 29 9A 96 A3 56 AE 1B D5 4A A1 B6 AD F4 1A C4 8F FA 19 9D C5 EA AB C7 
06 6B 97 C5 EF 1A 3A F1 74 0E 64 7C C8 11 00 A3 F2 AC 20 BB 19 F6 AB E2 27 87 6E 3D 92 02 00 46 
63 66 F7 D2 C0 28 1A 23 D6 2E 78 B5 68 F7 C3 1C 22 EF C3 E3 AB 1F 1E 5F 3D 0D 80 19 0D 5C 15 F8 
B7 47 95 FD B8 4A 62 8F 9E FE 0C A0 D4 7B D9 AA 99 B6 2A C0 35 FC 1C 35 FF 66 C9 83 90 37 25 7D 
1D 18 9A 7D 96 EF 9E FE 69 E2 E1 4F 77 36 AC 02 00 68 33 35 60 95 63 B5 4D E8 A5 6C D1 35 BA CD 
B4 23 A7 87 7E 89 7B 97 98 9E 5B A8 C6 7D F7 E6 6A 06 64 BC FB 26 80 B6 15 77 6D C0 8E 5D BC CA 
7B 95 C4 1C 0B 4D 07 00 B3 25 07 02 46 EB 93 05 C3 B4 47 78 1E CB 4C 38 73 F6 A3 A7 5F 5B 99 35 
83 6E A5 1F 4B 62 8F FE F7 19 00 F4 27 1D 3D 3D B7 83 22 00 C1 FF F6 21 95 4E 6D 64 CD 0C 99 A7 
4A 92 65 7A D5 FA 9D 54 1B D4 DB FD 35 AA E7 D9 B3 B1 C9 D0 C2 7A F4 CC D9 66 54 80 E2 87 01 75 
5A 65 3A 3B 78 87 7B 2B 15 05 05 45 55 7A D5 C7 6C 4A 4C 41 56 83 54 52 A6 79 48 1A 59 F2 B0 EE 
A6 DB 44 F7 02 00 B5 DD F0 71 1D 4E EC F8 90 73 E5 EC 9B E9 3E D9 67 9F F0 01 F4 87 4D 66 32 48 
4D BE 4B 45 F3 20 29 B7 AF F1 74 C0 C9 11 9F AC F9 F9 AD 25 C4 0E 55 CC 12 B1 33 8B 00 00 D4 4D 
0C 94 1B D2 27 E2 BC 58 3A C0 FB 2E B7 E2 6F F6 31 4F FB 63 00 00 A0 31 F4 E8 65 3F CB EA 1E FE 
51 B2 A5 A0 44 25 01 28 B4 30 D1 04 C8 01 5C 54 7D 57 AE 26 EF 57 85 17 BD 3E B6 74 5E 50 34 1F 
B4 07 F8 EF 9D 63 49 27 01 00 BD C3 F8 80 2B C3 32 DF BD 78 1E F3 26 EE ED 8B A8 87 09 45 78 DA 
F5 CD DB 1D FB EC 71 54 2B 77 2C 5E 9C 9E CE 01 00 EE 83 A5 AE BD 2B EB 13 16 E4 94 E0 C0 20 93 
E8 16 93 56 8C B8 34 35 24 1F 00 18 6E 8B 26 C9 D8 F8 A6 CA 16 5D 65 45 B1 C1 0B 16 1C 79 CB 01 
20 33 74 F4 E9 05 00 00 84 E4 2E 64 F5 DE B1 AB B2 88 A8 E4 5B 16 1F 00 E8 AD 5A AB 93 01 80 AA 
DB 41 17 20 13 0A 53 F3 05 D0 56 66 CD 55 BD 54 9C 91 C1 05 00 7A 87 EE AD C4 61 27 D1 F4 2C DA 
81 E8 5B 53 6B 96 38 25 92 ED 55 A1 0C 1B 00 24 3B D7 F5 7A 5E 55 23 53 23 6D 89 9F 91 36 43 4C 
65 86 A3 46 AF A0 1E 4D B7 E9 81 03 20 EB 39 4F EE F9 CF B2 47 45 B7 8F 5D D2 2D 8C C5 81 D4 69 
D2 88 36 55 07 A2 CD 71 17 D9 D4 F8 FC D6 12 62 1C 18 95 6E C2 94 B5 94 01 8A 81 9D F2 AD 94 E8 
48 AB 7F 12 07 2D A6 8B 33 56 84 03 88 58 6F EE C5 E6 62 86 36 7D CD 19 18 00 B9 85 A5 46 8D 28 
FC E0 4D 0B 48 98 54 C5 6D D2 7E 55 78 C1 AB FF D6 2D DF F3 28 1F D4 BA 7B EF DC 34 B9 8B 78 77 
1A EE DB A0 1D CF CC C7 8D ED 6B D9 77 A8 65 DF A1 20 18 77 60 D4 E8 C3 E9 50 56 CA 29 AB DC 47 
10 53 D1 D3 A5 41 22 9F 64 36 75 AB AF AD BA D8 3A 42 C8 27 19 B6 C0 00 80 E0 BC FF 77 53 48 BE 
F8 DA A2 AB 1B F6 0D FA 6F B1 35 A3 C6 33 54 D9 A2 4B BD F0 CE 86 23 6F 39 40 B3 DF 18 B6 7B 40 
4B 9E C4 4B 43 C2 1B 75 EF D8 D5 BE E2 6A 72 B9 A9 9C D4 2F 85 22 1B 3A 59 90 9D 98 03 00 A0 61 
DC A2 C6 4C 25 49 6A 92 0F 4C 45 5F 57 11 12 78 9C 4F AF 33 05 36 6D A9 00 84 20 FB 43 8A A2 B9 
6E 53 6B 96 38 55 8B 57 29 B2 6C 68 A7 5C 1E 13 A1 40 D4 E0 E7 95 78 CC 26 C7 54 66 38 3A 49 18 
59 9F A6 DB F4 C0 01 00 A6 69 37 C9 55 F3 D1 25 D6 8B 7F 8E 02 80 B2 E3 34 27 DD 6A 9F DE 66 B9 
8B E4 D3 D5 2C F8 DD 4F 75 38 B9 02 A5 76 CE 36 CA D7 EE 94 0A 5F 04 06 DD B7 5C D6 57 47 01 40 
54 F4 F1 6A F0 79 FE C8 15 23 5B C9 DC DB 89 6A 3A 6A E5 A6 51 00 00 DC D7 FE 83 A6 47 28 F7 5F 
B0 A1 39 A7 E4 9B 81 7A ED 57 55 96 71 7D FF 91 07 71 9F 00 00 20 ED 6A C0 BA 34 EB 89 0B 47 B7 
2E 8C 5C 36 E6 EF A8 22 00 00 86 66 F1 C3 C0 05 0F 01 80 A4 D1 6B F9 2A B3 0F 57 82 8F 86 07 2B 
EA B6 B7 30 69 41 E5 A6 BF 7D 93 0E 00 6A 4E E3 EC AA 6E 25 AF 62 35 75 8C C9 83 E3 5F 13 8F 6E 
DE F3 D9 CE 4C 8B CC C9 4D 4F 7C 93 64 B4 E1 72 37 7D 85 BC 7B 1B 17 1C FD 0C A0 3D 64 D3 42 2C 
70 C5 C5 CC F3 8B D7 58 9C DD 3E 48 AF C2 4D 35 B7 E8 A2 BE 54 A1 00 08 F9 1F AF 9C 38 9C 42 4A 
BE F7 48 86 66 35 DC 03 2A 56 93 87 1B 3C 38 9D 91 B0 7D C6 DC F7 76 1A 59 0F 6F A4 03 60 E6 63 
C7 9A 2B D6 E8 AA 48 47 A5 EB D4 31 AD EF 1F FB 92 1A 3C 69 DC 3B 87 8E 6A 9C 2F 2F 1F 67 F5 3E 
14 B6 A2 C9 35 4B DE 48 B6 57 ED 64 D8 B0 B2 93 AA AE 16 19 92 45 39 E1 DB 37 93 BA 1A 98 0F 9E 
D0 A7 91 56 35 31 A6 B5 85 83 2C 61 A4 BB 6B D9 9A E1 3F 3E 70 00 00 F4 8E 63 47 B4 BA 14 9C 02 
00 A0 3B 74 92 35 43 42 7A 9A E1 2E 92 4F 37 78 62 1F 99 D7 D6 E6 E4 2A 83 24 12 C3 7E E1 52 87 
E8 35 F7 D8 59 61 8B DD 6E 68 B7 36 52 E1 67 24 67 96 82 FE D4 C1 44 6D 5B E9 35 88 9F 22 5B F5 
DA AF 4A 94 1F 7B 25 E2 26 4B FC 07 3F 21 2A F2 33 DF 79 CE 68 63 F6 D7 C4 A2 F2 2B 8A BE C4 C7 
95 FF 53 59 AF 88 E2 36 72 A6 07 DC 79 11 F7 39 21 36 0B 00 14 34 4C AC FB 0F 9E EC 35 A6 7B B5 
D7 01 89 DE 71 CE 91 63 06 07 83 CF DF 89 7E 10 19 0F 00 54 4D D3 2E FD 1D 0C 15 F8 49 A7 96 AE 
BC 51 00 60 3A 75 87 AF 53 07 D0 FF 18 33 F9 78 CA C3 75 8B 8E B6 39 32 A3 D5 F7 E2 92 5B 74 51 
48 7D 56 AE 1B F9 F7 AE 8B 6F 9F 9E 39 9D DD DB A3 7B 3B CA A7 F7 75 B6 1A D9 1E A8 B2 E1 17 89 
6E 39 EF F0 3E 8D DD 41 17 EE BF 88 0C 03 A0 EB 77 1D 3C 7E EE FC 11 A6 D4 9A 23 2C 19 B7 A1 FF 
E5 7D E4 5F DD 7D FB CF DE 8E 79 72 FD 0B 00 DD C0 6A 10 53 9B D2 F4 9A 6B DC 48 96 57 81 44 95 
6E 03 90 D4 7B 2C F0 ED BF 6A FF ED E4 B7 97 4F C5 E9 79 F4 F0 74 E9 D6 38 AB 9A 18 D3 5A 1B A4 
84 91 F6 43 47 D4 DD 74 9B C9 BD 0A 46 FD 07 18 07 07 A7 02 58 4C 18 D9 BE C6 07 BB 19 EE 52 33 
04 B2 65 AB 96 10 57 87 AC EB B6 F9 82 5E E8 C1 A3 A1 F7 62 93 73 BE 24 E6 90 54 0D 3B 0F 18 38 
7A 80 81 42 6D 5B E9 35 08 B4 03 44 FD 40 5B 74 21 FE DF 08 3E 1F 1C 33 E6 50 2A D0 FB EE 8C D8 
DE 07 35 BA 2A A0 1F F7 20 10 BF 22 44 51 F4 D1 B3 A9 00 A0 ED 31 B9 3B D2 AC EA A0 DE 16 02 81 
90 33 64 CE 6D 55 95 33 12 89 24 71 B0 E2 08 02 81 40 FC 9F A9 EC 6D 55 D5 29 82 20 EA 23 4C 48 
BC 10 08 C4 FF 9F F2 DE 16 8E 57 2E D1 AF D9 A5 12 1F A9 29 52 F5 54 37 04 02 81 68 46 30 90 A1 
59 04 41 E0 38 2E D1 05 83 EA 9D B2 9A 7F 22 10 08 C4 8F 86 24 12 55 2E 90 AD D0 2F 12 89 54 B5 
87 55 B5 DB 55 F1 EF 9A FF 40 20 10 88 FF 03 95 0B 20 C4 7D 2B 31 15 FA 55 B5 87 85 3A 56 08 04 
E2 57 40 FA BA 2D A4 50 08 04 E2 97 45 BA 6C 49 8C FB 24 86 8A 08 04 02 F1 13 A9 26 5B 12 D3 55 
E2 01 23 56 65 13 07 F1 BF 49 24 12 92 30 04 02 F1 B3 A8 36 25 2F 1E 1B E2 38 5E 55 BF C4 D3 F3 
B2 A4 0A E9 17 02 81 F8 3F 43 AA 3A 01 0F D5 67 DF 25 A4 AA A6 42 21 CD 42 20 10 FF 7F 48 15 3D 
2C 90 36 13 5F 75 56 AB 62 55 04 20 C1 42 20 10 3F 8F 6A 3F EE A9 FA 6F A9 CB B2 90 5A 21 10 88 
9F 4E E5 4F A9 65 49 12 FA 05 0F 02 81 F8 A5 68 CC EE A6 31 31 31 CD 6E 07 02 81 F8 D3 B0 B2 B2 
6A 5C C1 BA 65 4B 6A 57 4B D3 C0 A4 71 F7 FB 5D 61 65 7C 45 3E F9 5D 41 C1 FD 11 B0 32 BE 36 BA 
AC CC E5 A6 35 97 98 A2 A1 22 02 81 F8 15 90 BE DC B4 62 7A BE EA 3C 3D 02 81 40 FC 0A 48 F6 B6 
AA AE 72 A8 00 CD CA 23 10 88 5F 07 49 D9 AA B9 20 BE 62 A1 FC FF D7 30 04 02 81 90 4E 35 D9 AA 
5D 9B 90 72 21 10 88 5F 81 BA 37 AE 41 6A 85 40 20 7E 29 50 9E 44 04 02 21 67 20 D9 42 20 10 72 
46 23 97 9B 56 22 4C BB 38 67 FA 99 8C CA 03 98 8A 81 45 AF 11 13 26 0F 34 55 C6 A0 F4 F9 FA B1 
7F BF C5 C1 64 D6 F1 AD EE BA F5 D2 C8 2A 15 B6 9A B0 7F D3 68 53 2A 08 B3 C3 E6 F8 1C FE 0A 06 
93 77 EF 1B 6B D0 98 85 FD 35 E0 BE 0D 9C BC E4 51 29 B4 5F 7A 7E 7D 6F B5 66 FE 96 B4 86 4F 00 
00 C0 7C CE C9 80 BE 1A BF C0 7B A2 11 41 A9 85 A6 C4 4B 98 11 3E 6F EA 7F A9 A0 3D 72 FF EE 49 
A6 0A CD 58 F3 8F 43 32 B8 14 15 9D 36 7F D9 BB 0D 19 E5 D4 56 F5 C7 07 B7 9E B1 AB E9 D8 E6 0D 
FA CF 46 7A E4 1B B3 B5 16 AD 95 B9 99 6A 59 7E 72 52 66 C6 BB 6B 81 6B F2 E9 FF AC EA AB 4E 69 
F1 57 2F 5B 2A 8F 6A 60 A0 D4 08 E3 52 4E 6E BF 6C 13 38 BC B5 DC 3A 59 41 D7 A4 D5 F7 B6 AC D8 
56 5D E1 D7 58 44 D2 B4 A0 D4 C2 8F 8B D7 AF D8 12 94 5A 5B B4 57 15 E6 7F 4D 4C 4B 78 7E 29 E1 
F9 BD 17 73 76 AE E8 AB F3 83 A5 B4 D1 B1 FB 61 41 FF 29 54 F3 72 2D 0B 1D EA 5C B7 45 EE 38 63 
E5 3A 6B 25 9C FD 72 D3 A4 6D CF B8 BC 57 77 BF F0 FA 76 25 71 D2 A2 9F 45 97 42 71 1F 1F D2 F7 
0E 8E 8E D3 F0 B6 5F EF 3C FD 54 88 2B 19 F7 98 EC E7 E5 6A A2 28 B3 EE E4 B3 BB 42 98 3B 47 29 
56 3D 56 FE DE 20 77 59 73 C1 CF 5A 59 94 19 B2 78 E6 A1 74 D0 72 DB FD EF 64 83 8F 95 B7 F8 72 
FB E9 67 36 A8 5B 0C 98 E9 63 CF BD 76 E6 EC F5 F8 DC 32 55 F3 21 DE 2B 66 32 5B 90 2B 2A E3 7C 
8A 3C 10 11 16 F5 B1 10 57 6D EB 38 7D E5 B4 7E 06 54 00 BC E4 E3 ED 63 47 AF 3C 8A FB 56 82 03 
AD 65 FB DE 63 A6 4E 77 35 55 C6 2A FA 68 26 9E DE 7F C5 5F BC F9 9A 63 B7 E5 C4 DC 8E 32 DB 81 
42 B7 B9 FE AB 99 55 4E 97 65 44 AC 58 12 1C 57 06 5A 4E EB 0F 4C EF 42 F9 72 72 FE F2 F3 29 40 
E9 30 7E F7 B6 C1 3A E5 C6 6B F5 76 6D F5 F5 41 4C 6A 09 89 61 E6 38 7D F9 34 47 03 05 61 56 D4 
EE 75 67 A2 D3 0A 4A CA 08 00 05 35 63 8B DE A3 27 4D EA 67 A4 48 82 DA BC 5A C6 8A 09 39 71 EA 
6A 4C 62 2E 0F 00 53 D6 35 65 0E 9F B3 C0 C3 10 AF 12 14 00 11 EB D5 95 A3 C7 AF 3F FB 90 C7 03 
50 D2 ED D0 73 D8 F8 A9 EE 66 AA 58 AD 35 37 24 5E B2 FC A9 C4 BA B5 78 EA 7F A9 00 00 39 17 66 
7B 5E 00 B2 D5 86 7F D7 59 CB F0 A6 B4 9A EB E9 96 BA 5A 82 CC 70 D7 0A D9 62 DA F2 75 D6 4A 80 
97 7C 38 B7 65 C5 B1 84 C2 47 C1 FF 44 75 F2 EF DF 02 AB A5 42 19 11 51 00 BC 24 F1 EE A9 13 37 
9E 7E 48 CD 2B C1 31 55 BD 4E 8E 63 16 CC B4 57 89 97 6C 6F FE CB F0 1A 1F 28 C9 06 D3 97 16 55 
D3 B1 CB 69 3F 2C E8 3F 01 29 CB 4D 6B 5E D4 90 B5 A6 22 3E 5F 08 00 A0 A8 AE 24 23 EE D9 77 EE 
67 AB 9A 99 69 93 80 9B FA 78 7F C0 C3 3C 5C EA 65 3A FD 9C 0C 01 E0 CB F1 7F 2E 7D E1 37 F0 CB 
CC EC BB 0F 73 19 6D 5B A9 00 5E 18 7F 6D 9B F7 DA F3 49 34 E3 D6 AA 00 C5 1F C3 82 4E 7D E0 55 
B9 32 ED 72 64 0A D5 A4 B5 26 40 F1 E7 BB 01 EB 23 D3 CB 80 FF F9 C2 F2 F9 87 AE BF E1 B6 1F 3A 
71 D6 E4 BE 3A F9 09 B7 FE 59 1B F8 94 5D C5 CC AF A7 83 AE BE CE 2A 03 E9 96 57 50 F6 2A 68 DD 
E2 05 7E 8B 17 F8 2D 5E B0 EE 40 74 31 A1 60 30 68 D5 02 07 75 80 BC 5B 5B 03 EF DD 3F B4 F3 7C 
0A 80 5A 8F 25 AB DD 4D A8 15 A5 58 9F 73 D5 AD 06 F6 EB A8 46 14 25 DE D9 B5 F1 6A 46 19 10 BC 
FC 6C A1 56 87 5E 4E 83 87 39 F7 F9 8B CE 4E 7D 73 79 FB F6 90 AF 65 B5 7A B5 2C F9 BF B5 6B 8E 
3D 4E 2C 36 EA 37 72 F8 48 8F 5E 7F A9 E4 BE 79 93 2F AC 66 21 C1 8D 3F B9 6C F9 7F 51 1F F2 D4 
AC 1D 5D FB 59 D0 B2 3E DC 0A 5A E5 77 2E AD AC B6 9A A5 3E AC CC 78 C9 F2 27 41 6F 3B 70 88 05 
1D 00 80 6A 36 70 C8 68 CF D1 FD A4 0F FB 64 D6 5C 1F B7 D4 D9 12 EA 11 EE 5A C1 54 3A 0C 9F E2 
A6 05 00 65 6F AE C5 17 E1 B5 54 28 33 22 FC CF 21 CB E7 1E BC FC F2 6B A1 5A A7 BE CE BD AD 5A 
16 BF 7D F0 2E AF 72 DB E1 DA DB 9B 64 83 C9 A4 D6 EE D8 66 0C FA CF 42 4A 3B 69 DC 82 78 D1 BB 
43 9B 96 9F E1 E7 7E FA 92 5D 06 00 46 83 86 98 2A 02 70 A5 5C D9 7E 71 D0 FA DE 6A C2 2F C7 16 
CE 3D 93 0D DF 92 F3 CA A0 25 AD E6 65 54 93 E1 73 C6 26 2E 3F 93 92 72 72 DB 65 C7 B2 9A 17 D4 
42 FB 45 7B D7 F7 56 E3 3C 5F 35 7D FD 4B 21 98 7B 6D DF D9 57 93 FB 6A C3 D8 4D CF F8 C5 5F 32 
38 78 C7 8A 97 76 7B DF BD EB 7B AB 11 F9 B7 D6 4D DD 11 2F FA F2 28 36 BF BF C1 99 2B 5F 01 14 
6D A7 CF 9B D0 99 0E 3C BD AF 2F D6 46 71 5E 5C F9 C8 B1 EF FE BD 97 66 38 61 C7 D2 FE 86 74 0A 
85 A6 5C 6B 97 5B 90 91 F4 F1 FB 2C 08 9E 2F 24 00 30 75 6B EF F5 23 BE CE 0D F9 F2 F0 C0 0E 00 
00 A3 51 FE 5E F6 2D AA 2A 7C BB F1 4B 66 F5 56 23 95 76 2E 9E B4 FA 05 2F E9 71 6C BE 87 BB C9 
F0 6D 41 FD D3 3E 7E 4A CE 64 15 A9 F2 13 DE DF CF 82 EC 84 9C 32 68 5D 31 1F 54 D3 AB 3D 8A 93 
72 00 00 C8 34 15 75 9D 76 6D 6D 07 4D 9D A5 24 24 68 00 FC CA 7B 71 E2 CE DD FA 06 00 A6 53 37 
AD 73 D1 21 97 B9 68 2D 98 7B 2E 27 F9 52 E4 E7 61 B3 4C 64 D6 DC A0 78 71 DE C9 F0 27 D7 BE 7B 
7F 8F 6E 11 61 F1 A9 A0 DE 79 F0 A8 09 35 E6 B6 EA AA 19 14 EA E1 96 BA 5A 02 2E CB 3C 8E 7D 77 
95 7A 7E 10 28 EA AD 34 01 F2 80 60 E7 95 8A 38 49 32 2B EC 94 27 3D 22 9C 57 67 2E 7F 05 00 DD 
21 3B F6 8F 6B 4B 03 20 04 39 9F BE 29 55 FA A3 B2 BD 61 5F 0E D6 B8 BD 64 83 79 C5 F1 70 A9 E1 
58 6E 5E 65 44 9A 2F E8 3F 8B E6 1B 8A F3 53 3E BE 03 00 50 68 61 D1 73 C4 8C 09 6E A6 D4 5A 2F 
27 AB 6A 2B 03 00 10 22 59 EB C2 48 8A 26 C3 97 0C 7B E0 73 31 23 35 EA 6E CD D3 04 5E 57 17 8C 
4C 57 A1 02 08 01 80 04 00 64 25 55 1A 00 1F 08 51 CD 2B 31 D5 56 26 EA 10 9F 0F DC C2 D2 62 2C 
93 07 00 BC 67 3B 26 0D A9 BC 42 C8 66 95 E2 C0 28 FF 4B 59 CF 58 B7 45 DD 13 F9 0A DD 37 1E A9 
36 48 04 00 20 29 99 0D F6 1E 74 7B C9 95 42 00 50 E9 3F 65 84 B9 F4 EE B7 82 7A 4B 65 00 1E 70 
0A 38 65 25 71 97 D6 AD 0E FD C0 05 20 AB 68 E9 28 B2 C5 0E 90 F2 FC 55 BD AA D4 71 C2 C8 8E 1F 
CE BE 2B 79 17 7E E8 5D 38 00 80 86 CD EC BF 97 0F 31 AC BC 1C E7 E4 E4 08 00 40 C9 C8 90 41 06 
00 85 96 ED B4 00 72 A0 E8 5B A1 A0 96 9A A5 3F AD F4 78 E1 A5 DF 64 FB 53 B1 66 2D F5 AF 19 F0 
92 B8 F3 F5 74 8B CC 96 50 AB 79 2A E4 9A 55 49 43 58 98 C2 02 00 C0 D4 B5 95 B1 5A 2A 94 11 11 
0F 5A D6 37 1E 00 28 B5 B3 34 10 4B 03 89 AA 6D D6 0A 2A DF FA 95 ED 4D 5A 3F A0 9C 2A 0D 46 04 
B5 48 4C B3 06 FD 27 D1 6C B2 55 EB C4 84 34 EA D3 A9 53 6C 3B 74 D1 C8 27 BE 17 B2 AA 15 C4 C8 
18 00 8E 97 B2 79 38 28 D7 7A 0B AC EA 2D 6A B9 21 5E 94 9C 5C 00 00 24 0D 03 0D 15 55 6D 2A 24 
0B 48 A6 C3 56 78 75 66 88 BB 41 84 48 40 D2 D1 C0 40 8A E2 35 18 82 9B 70 69 DF 95 42 F1 1F 25 
B7 0F 9C 70 DA 3A B3 8B 4A 8D 01 35 5E 98 98 98 0F 00 24 4D 23 B5 E2 C7 01 A1 1F B8 40 B5 5E 70 
C8 BF 47 0B 7E DC A6 31 FE 4F 78 92 05 C4 54 79 48 21 9F EE B0 F6 AC 73 5E C2 C7 84 CF 49 AF 6E 
84 47 25 17 BC F8 2F E2 D3 40 6F D3 8A AB 31 BA B6 36 15 92 05 DC F4 F4 22 51 27 25 72 59 6E 72 
3E 00 80 9A 9E 7A 8D 97 4E 23 E3 F5 FD 16 52 FD 29 96 11 00 A1 A0 2E CF 4A A9 19 2F 7C 1C 5C 6F 
B7 C8 6A 09 75 98 57 0F F0 D2 84 4B C7 23 F3 00 40 D1 6A D0 5F 0C B2 82 EC 0A 85 A5 D2 23 32 49 
47 9B 06 49 7C 6E F2 87 EC B2 4E 26 0A 00 44 59 DE A7 4C 5A DB 56 0D F9 74 56 69 30 EA 64 E0 CA 
76 6C 73 07 FD 67 F0 53 BE 43 AE 3F 24 C5 76 E3 7C 86 3C 5C 15 56 A5 B9 2A B4 6C AB 0D AF 32 21 
29 78 CD CE D7 3A 25 1F 9F A5 37 E1 06 5F 2F EE D9 FF 0A CB 8C 79 90 80 03 A8 F6 1D 6A AD AE A2 
30 D6 D5 F0 59 58 7A F2 C5 7D 87 53 BB B5 D1 20 73 59 DF 92 12 52 F4 E7 1D ED A4 DD C0 18 96 C5 
FE F3 F7 82 8A 6F 12 DB 8F 5D E5 D3 85 5E F0 62 EF EA 8B 5F 01 5A B8 2C 98 4E 3A B9 35 32 E7 CA 
BA BD ED 0E 2C E9 A7 53 F1 66 4F B9 B4 77 7F 2C 9E 19 FD E8 13 00 A8 F6 1D 62 A5 A6 F0 46 99 0C 
20 12 7C 8A BA 78 2A 13 52 9F BF 94 F1 E1 AC 06 5E 1C BD 7D CE 41 8E 85 5D 37 53 5D 06 21 EE 84 
60 86 A6 2D AA 45 9C DE 69 B4 93 EE B3 AB 59 49 47 97 F9 7D B6 52 CB 7B 11 95 0D 80 B5 19 EA D6 
96 06 42 19 15 D7 86 94 78 D1 3B C9 F6 A7 92 8A 96 26 19 52 45 AC 5B 41 87 48 1D B5 DB 0E 1C DC 
D7 40 C6 50 51 4A CD 64 7A 23 DC 22 49 6D E6 D5 3A 5E 10 C5 1F D9 BA EA BC 30 FF 6B 42 5A 11 00 
40 4B 27 9F B9 BD D5 31 20 64 56 F8 17 45 46 44 E8 6A 63 5D 8C 9E 86 A5 65 5C F0 F5 FE 6C 6F AE 
C2 4D 7D 17 9D C3 DC 72 6C A6 49 BD 1E A1 46 83 51 C7 C8 64 49 C7 76 AF FA C8 CD 1B F4 9F C0 AF 
F4 8D B2 54 48 4A 66 9E 4B 5C B4 AB 1C 51 30 76 9D 3F B1 AB B6 02 70 3F 45 BF C9 51 EB CA 54 6B 
42 F5 0A 90 F5 F6 DE 83 04 16 A6 D6 DE C5 7B CB FC 6E 0C 8C A4 64 3E 76 7B E0 CC 41 D6 C6 D8 97 
E8 7B D7 6E DD 8E 7A 9B 81 B5 EE D9 43 57 D6 D4 4B 2D 94 65 7D FD FC 29 59 FC DF BB CF 85 65 FC 
B4 B0 F5 01 F7 D9 00 AD 86 AD 9A 65 DF 73 E6 A2 11 86 00 9C 98 DD 6B 43 3F F3 2A 7B E1 C2 F4 B7 
51 8F 12 0A 95 B4 FF 72 9B B3 75 41 37 06 45 CD 76 FE 5C 37 0B 75 72 E1 EB F0 4B 4F B3 B4 3A B6 
AE CF CB 86 44 37 E9 D5 DD 44 98 FC 20 3C EC CC C9 F0 07 B9 5A 1D 07 4C DA BC CE 59 B7 FA 77 C7 
4A 16 13 B6 6E F6 EC D3 5E B3 F8 D5 83 1B 51 F1 3C DD 0E CE 73 FC 37 8E 32 6C C4 C3 7E AF 51 22 
5E B5 F9 93 C4 E8 36 75 96 9D B1 32 70 E2 EF 85 5D B8 FB 86 55 5B A7 4B B2 66 AC 51 6E A9 59 6B 
63 C3 CD FD F2 FE F5 DB 84 B4 52 65 1D B3 EE C3 17 6F DD EB DB 5D 13 AB B5 42 99 11 21 29 B5 1F 
BB 7D F7 0C 97 AE 06 B4 8C 57 51 37 1F 3E 4F A1 5A F4 FC 4B AB 9E 43 D4 9A 0D 06 AB DD B1 CD 1F 
F4 FF 3B 8D D9 DA 21 26 26 06 6D F6 28 41 33 6C 80 F9 43 57 C0 22 9A C0 2F BA BB A9 9C 37 18 56 
C6 D7 46 6F CA FC CB F7 B6 10 08 04 A2 3A A8 B7 D5 3C FC A2 2F 64 44 73 80 82 FB 23 40 BD 2D 04 
02 F1 07 81 64 0B 81 40 FC 7C 08 82 C0 71 BC 9E 83 3F 24 5B 08 04 E2 E7 23 12 89 FC FC FC 4A 4B 
4B 71 BC EE 1F 12 21 D9 42 20 10 3F 9F B2 B2 B2 2D 5B B6 2C 5E BC B8 A0 A0 A0 4E E5 6A E4 72 D3 
A6 A4 66 FC 5D 41 3E F9 8D 41 C1 FD D1 88 A5 EA F2 E5 CB 14 0A C5 DF DF 5F 5D 5D 1D C3 64 76 AA 
1A 29 5B 8D FE 0A E0 77 25 26 26 06 F9 E4 77 05 05 F7 47 10 13 13 53 F3 E0 83 07 0F EC EC EC 94 
94 94 FC FC FC 18 0C 86 2C E5 FA C5 7F DC 83 40 20 FE 20 4C 4D 4D EF DF BF DF B3 67 4F 3A 9D EE 
EB EB AB AA AA 2A 55 B9 90 6C 21 10 88 5F 05 91 48 D4 A1 43 87 BB 77 EF F6 ED DB 57 49 49 C9 DB 
DB 5B 45 45 A5 A6 72 21 D9 42 20 10 BF 0A 42 A1 90 4C 26 77 EE DC F9 C6 8D 1B 4E 4E 4E 8A 8A 8A 
D3 A6 4D 53 51 51 91 D8 8A 02 C9 16 02 81 F8 55 10 89 44 22 91 88 42 A1 D8 D8 D8 5C BD 7A D5 CD 
CD 4D 51 51 71 FC F8 F1 CA CA CA 55 95 0B C9 16 02 81 F8 55 10 0A 85 14 0A 85 42 A1 00 40 CF 9E 
3D 43 43 43 87 0F 1F AE A8 A8 38 72 E4 48 3A 9D 5E A1 5C 48 B6 10 08 C4 AF 82 48 24 12 8F 13 C5 
CA D5 BF 7F FF D3 A7 4F 8F 1B 37 8E 46 A3 79 78 78 54 28 17 5A 6E 8A 40 20 7E 15 84 42 A1 78 9C 
58 71 C4 CD CD ED D0 A1 43 DE DE DE 37 6F DE E4 F1 78 E2 5F FF A0 DE 16 02 81 F8 55 A8 E8 6D 55 
74 B8 00 60 E4 C8 91 3C 1E 6F FA F4 E9 27 4E 9C E8 D7 AF 1F 8D 46 43 BD AD DF 16 CE CB 95 8E 8E 
AB 62 38 3F DB 0E 04 A2 DE 88 AA 80 E3 78 A7 4E 9D 94 95 95 95 95 95 BD BC BC 0A 0A 0A 26 4E 9C 
18 1B 1B 2B 12 89 9A A9 B7 45 08 32 EF 6C 98 B2 81 B3 2E 72 87 2D BD 79 AA 94 73 08 4E F2 AD E3 
87 CE 5C 7B FA 3E B3 04 07 9A BA BE 69 B5 B8 CB 30 00 00 20 00 49 44 41 54 47 3B A7 61 E3 47 F5 
32 FA A5 F2 64 22 10 BF 12 E2 AE 56 7E 7E FE E3 C7 8F 27 4F 9E 3C 7D FA F4 03 07 0E F8 F8 F8 A8 
A9 A9 91 C9 64 2A 95 AA A4 A4 24 14 0A 9B 41 B6 F8 1F F7 CF F6 3D 9F 98 57 CC 53 E8 DB F4 DA 7E 
0B F0 A2 97 BB A7 CD 09 51 18 EC EB 77 74 9B 85 2E 5D C4 CE FC FC FA 41 44 E8 D9 7B BD EC 26 B6 
96 9F 2D BB 11 88 FF 2F 22 91 28 23 23 63 F8 F0 E1 85 85 85 83 07 0F 9E 31 63 86 BF BF 3F 85 42 
71 74 74 14 AF 81 50 50 50 A0 52 A9 CD 30 48 A4 99 CF 3E 1A 79 EF E6 3E E7 FA A6 95 FB ED E1 27 
1C 59 77 BA 74 E8 9E 83 2B 47 74 37 6D A9 4A 57 56 D7 6B C7 74 99 E6 7F 78 DF 04 13 05 10 7C 0A 
F2 B0 1D 1B 74 76 F7 BC 11 8E D6 4C E7 75 B1 5C 00 41 E6 BD 3D 73 06 F7 62 32 99 D6 8E 63 96 1D 
8F 15 E7 44 E6 BD DB 3A B0 E7 DC 47 25 E2 5A CB 92 0F 0D B3 9F 7C 25 1F 07 C1 A7 20 8F EE A3 76 
9F D8 EE E5 6E CF 64 32 1D 27 6C BE 9D 25 4E B9 22 CA 7F 1A EC 3B CA A9 3B 93 69 E3 3C 2D 30 BA 
E8 A7 B9 00 81 68 0C E9 E9 E9 83 07 0F B6 B4 B4 34 37 37 DF BB 77 2F 8D 46 9B 37 6F DE E9 D3 A7 
09 82 50 55 55 65 30 18 4A 4A 4A 58 2D BF B1 46 34 1A 41 DA BD A8 1C 43 8F 51 96 AA 92 C3 C1 8A 
75 27 C2 4F E7 22 0B 3A 79 FA 05 06 6D 9B D8 8E C6 FF 78 C8 67 E5 CD 96 5E C7 A3 9E 3D BD 11 E8 
C1 39 36 7F 49 58 66 1D 99 03 45 C9 77 5E AB 0E 5E 77 F2 D2 B9 5D 1E BC 4B 1B F6 C4 96 02 94 A5 
9C 59 B8 E8 8C C0 6D E3 85 9B B7 AF 1E 5A E8 A8 57 7B 86 5D 04 E2 57 63 CC 98 31 76 76 76 F3 E6 
CD F3 F3 F3 DB B3 67 0F 9B CD 9E 3F 7F FE EB D7 AF 63 63 63 F9 FC CA 74 EA 48 B6 9A 1F 61 51 56 
11 A8 1B A8 89 07 E0 9C 17 7E CE 36 4C 26 93 C9 64 DA 7B 1E 49 16 27 FE A5 76 5A B6 7B CD 8C 61 
FD EC 6D BA B4 56 15 24 86 45 64 FD E5 3D 77 80 A9 0A 45 41 B3 D3 C8 85 63 5B BE 3D 1F F5 AD 76 
DD A2 76 9A BD 6A A6 4B B7 36 46 6D EC 3C 9C 0D 79 C9 9F 0B 45 82 E4 F0 73 89 A6 B3 FD C6 DB 18 
6B AA B7 6C D5 B1 93 41 3D B3 3E 23 10 BF 02 24 12 A9 7F FF FE 73 E6 CC E9 D6 AD 9B 83 83 43 97 
2E 5D F6 EE DD AB AA AA DA A5 4B 97 47 8F 1E 71 B9 DC 8A BD 4F D1 02 88 E6 87 A2 AC A5 8C BF 4E 
61 09 41 8B 0A A0 D4 79 D1 F1 30 6F 5C 98 1D B1 C0 EB 3A 5F DA F6 67 22 76 66 89 A2 9E 8E 52 F9 
2B 84 A2 D1 4A 1D D8 E9 6C 21 68 D5 EB 76 98 A2 0A 0D C3 45 38 51 96 FF B5 50 D1 C8 44 0D 8D D5 
11 F2 07 86 61 6B D7 AE 75 71 71 69 D3 A6 8D BA BA 3A 41 10 AB 56 AD 1A 3A 74 E8 83 07 0F DE BF 
7F 3F 7C F8 F0 AA 3F EE 41 BD AD E6 87 6A DC B7 97 56 66 C4 99 68 36 0E 00 24 9A A6 9E BE 81 81 
81 AE 3A 4D C6 57 88 64 35 7D 15 6E 66 16 A7 5C D2 CA 58 5F 0B 40 CD 50 8D 02 24 8C 8C 89 78 5C 
51 3D 73 2B 91 55 5A 28 F1 73 F2 B8 75 EF 69 8B 40 FC 6A 50 A9 D4 05 0B 16 58 58 58 88 37 08 24 
93 C9 F6 F6 F6 A7 4E 9D EA D8 B1 E3 E6 CD 9B 9D 9D 9D D1 8F 7B 7E 30 4A 1D 67 AC 1E F6 78 FE C2 
69 A2 79 F3 C7 F7 B3 34 50 16 B1 BF 7D 7A F4 3A 4F C6 B0 4F D1 6C 88 BB DE E4 7D 7B AE 77 58 3A 
C0 48 10 1F B2 FB 6C 9E E5 DC BE 7A 64 20 B5 34 37 80 B0 D0 CB 6F CC 1D D5 F3 DF 5C 3D 72 21 55 
A0 5F CB 6D 15 DB 0C E8 A9 32 7B FF BE 6B AD 26 77 A2 64 C6 5C 3E F4 B8 88 E8 F5 43 1E 10 81 68 
6E 30 0C 13 EF F4 50 A1 4D 34 1A CD C9 C9 C9 DE DE 9E 44 22 29 2B 2B 2B 28 54 7E 05 DF 0C B2 C5 
8B DB E1 E9 15 92 C1 17 8A 00 7C 1C 6C 15 5B 79 1E 3A 39 AF 03 AD E9 15 CB 2F 98 66 8F E5 A7 FE 
EB 74 E4 D0 B9 CD D3 03 72 38 00 18 C3 A8 A3 B5 CB E2 65 83 A5 26 2C A7 99 CF DC BB 49 B4 21 70 
62 DF BF 79 C0 68 E3 38 29 70 FD 10 7D 32 00 B4 EC BF 62 D1 E3 25 BB A7 0F DD AD 68 D4 73 A4 BB 
AD 76 74 6A 6D B7 55 EE B6 60 87 F7 DA 35 1B 27 45 88 D4 4D 7B BA D9 B6 51 FC F2 63 9E 0F 81 68 
6E AA 0A 56 C5 11 1A 8D 46 A3 49 91 92 46 A6 77 45 7B D4 4A 80 7C F2 1B 83 82 FB 23 68 8A 57 D1 
DC 16 02 81 90 33 90 6C 21 10 08 39 03 C9 16 02 81 90 33 90 6C 21 10 08 39 03 C9 16 02 81 90 33 
90 6C 21 10 08 39 A3 91 0B 20 7E 84 29 08 04 E2 8F A2 D1 0B 20 1A B9 DC 14 2D 63 91 00 2D ED F9 
8D 41 C1 FD 11 34 A5 F7 83 06 89 08 04 42 CE 40 B2 85 40 20 E4 0C 24 5B 08 04 42 CE 40 B2 85 40 
20 E4 0C 24 5B 08 04 42 CE 40 B2 85 40 20 E4 0C 24 5B 08 04 42 CE 40 B2 85 40 20 E4 8C 26 EF 6E 
4A 94 BC 3B B9 25 20 EC 45 62 2A 8B 0B 4A FA 56 1E DE 7E F3 06 1A FF D1 7B 9B 02 40 6D 59 A9 A9 
B9 17 27 B9 6E FA 20 BE 8C CC 30 B1 76 9B EA EB ED 62 AA 90 76 6A EA D8 80 78 3E 00 60 2D DD F6 
87 AE B3 A2 83 20 FB C9 E9 7D 47 2E 46 BD C9 E4 00 C6 68 C5 EC 3F 7A 96 F7 88 CE EA 95 EF 1A 4E 
F4 5A 77 AF 2B 6C E3 59 E7 CF CD 30 AD B2 71 6A 9D 05 BF 83 E7 54 31 06 40 41 B3 6D 77 F7 D9 2B 
67 F7 D1 A6 08 53 AB D8 33 D0 C7 E8 FA 9E 58 29 8F D9 75 EB DD 43 FD 18 04 3F E3 E1 C9 A0 63 E1 
0F E3 BE 71 08 86 73 D0 95 4D 36 BF 6B 6E F2 6A 6E 71 DB 1F BA B6 7D B2 8C F6 2F CC 7B 71 6A 77 
D0 F9 A8 77 D9 3C 00 B2 AA 7E FB CE 3D 87 78 FB 0C 35 A3 4B A4 14 A8 1E 02 45 AD 36 9D 7B BA 79 
4E 1D 6D AF 2F 2B F7 00 00 00 94 7D 3D 3A C6 33 6A 52 F8 31 8F 96 F5 EF 7A 48 1A BF CE AA 79 C2 
D4 28 63 9A 04 D1 70 A2 A3 A3 2B FF 10 E5 DE DD B9 F1 D0 F5 D8 2F D9 F9 39 C9 8F 0E 4E B3 B7 1A 
76 F0 33 BF 11 B5 CA 37 D5 7C 42 88 D8 2F 76 8E B0 B6 1B BB E1 C2 B3 A4 9C A2 D2 92 82 CC C4 97 
91 87 57 4F 9B 7D 3C 59 40 88 B2 43 C7 5B 3B 6F 8A 61 95 96 B0 73 92 9E 1C 9F EF 60 E5 BC F1 55 
29 41 10 04 F7 CD 86 FE 36 53 6F 14 E0 04 41 10 C2 AC C8 45 0E 56 8E B3 83 6E BD CF C8 2F CC 4D 
89 0D DF 3A C1 CE CA 7D D3 B3 42 51 F9 6D 70 F6 FD C5 8E 2E 4B 36 7A DA BB ED 8A E7 55 DC BD EE 
82 55 2C CD 0E 1D 6F 3D 60 F3 2B 36 9F CF 2B 65 67 27 44 AE 76 B2 72 DE 12 C7 15 9F AD B0 07 17 
14 17 B0 58 2C 16 8B 95 7E C3 C7 CE D6 EB 5A BA F8 AF 82 62 01 4E 08 52 2F 78 3B F4 9D B2 F3 72 
6C 4A 2E BB 30 27 3D A3 A4 E6 7D E4 9A EA C1 AD 1E 26 59 ED 9F 9F 10 34 9C D9 6B D6 C1 A8 84 AC 
42 36 EB DB E7 98 1B C7 37 CE 5B 16 F1 4D 58 A3 F6 CA F6 50 CC CE 4B 7B 7F FF DC 4E 1F 17 A6 DD 
84 83 EF 4A F0 5A 6C 12 7C 39 32 CC 6E 42 78 4E 83 5D 5D AD 8D 35 13 8D 32 46 D2 AB 0D A1 C9 B2 
55 9D 92 87 73 6D AD BD A2 8A 1A 6D 8F BC 52 CD 27 BC F8 5D 6E 56 2E 9B 5E 16 49 36 0D 1C C7 C5 
CD D4 66 E0 B6 F7 E5 3A C3 7D BD BE 3F 73 CC 99 0C 21 51 BD 49 71 5E 6D 70 B2 1A FC CF 7B 6E 65 
71 51 E1 A3 D5 8E 56 C3 0F 25 09 C4 7F E6 5D 9F ED 30 EA 68 52 CE DD 85 7D 9D FD 63 4A CB AF AA 
BB 60 15 AA 19 83 F3 32 6E AF 76 E9 EF 7B 3D BB BC FD 49 69 E2 25 4F 16 DA DB CD 7D 54 52 59 43 
FE ED 79 7D 5D 36 C7 D4 FA 21 93 6F 6A 93 AD EA 54 B4 7F 51 76 E8 78 66 EF 15 2F 4B 6B 5C 52 03 
89 F6 40 10 84 28 FF FE AA 7E 56 43 83 3E F1 09 02 67 3F D9 30 D6 A9 A7 B5 95 95 95 95 4D FF 31 
4B 8F BF 62 8B 08 A2 F4 E5 AA 7E 56 DF B1 1E 1A F8 81 27 F5 32 69 54 35 9E 9F B8 CF DD 66 64 C0 
F1 6D B3 06 D9 59 59 59 39 8C DF 74 EB 5B 59 F9 71 EB 21 1B 02 57 4D 70 B6 B1 B2 B2 76 9A BA E3 
5E 76 19 41 10 DC B8 2D 03 7A F8 3C 2C 16 D7 24 48 0A 1E 6A 37 E9 72 5E B1 A4 31 F5 EB B5 34 45 
B6 9A B7 4F C7 FB FA 22 49 68 D8 D5 F0 CF 1E 23 D6 23 2B F5 77 44 45 09 D7 4E 45 15 E8 58 5B 6A 
4A 64 37 14 A4 3D 7A 5E 68 EC E6 DA AE 4A 8A 56 4C AD DB D0 DE 6A 29 F7 62 F2 70 00 C0 73 EE 9F 
FB D8 7A 8C AB 49 CB EE E3 1C 20 EA DC AB 22 A2 7E 05 25 11 E5 9E 9B D4 DB D6 D6 D6 C6 BA 87 C7 
B2 1B 8C 7E 4E 66 35 0C AF 85 D2 F8 AB B1 1C C5 6F FF 4E 71 64 32 99 CC EE 2E 53 37 5E 4C 28 FD 
43 73 9E 55 B6 7F 4C BD A3 9D 51 E9 BD 5D 01 67 EE BD 4E CE 29 15 36 68 BF 02 4C D3 76 DC 20 9D 
B4 5B 77 D3 CB 80 A4 68 EA BE 78 CF D9 1B 0F 9E 3C 79 70 35 C0 BD F0 A8 DF C1 0F 7C A0 33 FF 3E 
EC DD 8A 6A F1 F7 B5 17 D1 D1 2F 2E CE 33 A7 49 BD AC 3E 48 4B 6F 0E 00 80 67 BE C9 33 9B B2 FD 
CC C5 D3 DB DD 05 21 7E 6B 6F E4 C8 0A 6A 0D 63 7E 7C 32 F4 66 4C 38 86 B3 1E 07 AC BC 80 0D 0D 
18 DD FA CF 4E E2 5E 23 2B F5 10 9F 1B 2C 1C 00 A8 66 B3 FF 3B 36 CD 04 CA 95 22 84 24 12 E1 A0 
61 39 C2 7F 9F 77 07 C9 04 D2 A2 92 9C 12 60 E8 49 E4 6A 25 33 74 19 A4 98 DC 12 21 00 96 7E 33 
24 BD F3 F4 BE 2D 31 C0 3A 8D 76 53 99 75 F6 79 81 9D 93 26 56 67 C1 1A C1 C1 34 DD 77 1C F6 6A 
4F 23 44 82 92 AC D8 B3 1B D7 4C F1 C3 42 76 38 6B D5 EB 95 26 2A 4E FB C6 A5 E9 76 F1 5C B2 66 
AB 81 12 E7 D3 B5 9D 0B 37 79 0B 0C C3 D7 DA A8 34 40 FB 7E 07 24 DA BF D9 CC E0 03 EA 07 8F 5E 
DA EC BD 93 25 00 4C DD B4 FB 80 71 73 66 BB 9B AB D4 C7 AD 14 75 23 0D 12 3B 8B 2D 04 A0 A9 D0 
73 42 83 0E 3E 7C 9B 9C 91 5F CA 17 08 44 78 16 1F FE AA D1 31 A0 D4 EF B2 9A 88 D3 9B 6B 62 00 
C6 1E CE 86 67 EF 7C 2E 14 D9 B4 04 00 AA C5 E4 05 E3 1C 34 31 00 D3 69 F3 FA 5D 9C 7F F5 5D 89 
AB 7D 83 9D F2 83 68 2E D9 2A CB BA BB D5 7B 6D 74 B7 75 C1 4B 6C D5 FE F0 AF 27 EB 91 95 5A AC 
14 E6 74 45 86 A6 9A A2 54 77 91 55 B4 94 E1 5D 16 5B 04 2D AA 9C 17 15 65 17 11 AA 2D 55 28 20 
48 BA 12 9A C8 CA 58 3E D0 1E 23 01 10 42 A1 08 3B FB 30 AF DF 60 ED BA 0A D6 84 44 A6 6B E9 E8 
E8 D0 00 00 F4 8D 16 F8 DE BF E6 1B FA BA D8 A9 BF 5A FD 74 87 44 C2 54 CD EC AC 5A 6B 52 01 E8 
7F 79 CC 1E 77 F6 CE B9 87 A9 02 1B 8B 3F A9 CF 2D A5 FD 53 B4 98 9E 7E 4C 4F 3F C0 F9 05 19 89 
AF AE 1F DA B0 DE 8B D5 32 62 93 3D A3 6E BF 0A D9 19 6C 50 33 50 A7 88 BE 45 2C 9E B2 BD 74 A8 
DF 8A 20 BB 76 FA F4 B4 FD 23 27 BF C6 6B EE 35 25 F3 B2 86 BC 3A 2A D2 9B 4B 9E A0 A8 EB AB E2 
29 85 DC 06 6F 71 F5 C3 68 0E 85 C1 8B E2 4E F8 4E DC 90 32 30 F0 C4 6A 67 3D 69 89 00 FF 2C EA 
91 95 5A AC 14 DA 5A 32 34 0B 00 A8 86 3D AD 19 A9 91 D7 93 79 95 C7 88 A2 37 E1 0F 8B 5A 39 58 
69 61 BC 84 4B 91 5C A7 6D A1 97 23 C2 C3 C3 C3 C3 23 22 8E 7A B7 FE 78 EE 56 86 B0 AE 82 75 5A 
8F 8B 70 20 2B 28 48 0E 67 65 41 56 33 31 52 62 7D F8 5A 52 2E C8 84 90 5F 06 34 55 C5 3F A8 AB 
25 AD FD 13 65 1C DE F7 6C BE 18 4D C3 A8 93 E3 84 19 4E 9A A5 C9 C9 6C 19 39 7E AB 55 58 18 7D 
F6 4A B6 C9 20 07 43 05 EE A7 9B AF C9 7D E7 79 B9 5A 1A 69 28 91 AB 3A 95 44 22 01 F1 7D F0 29 
FB B2 66 80 E0 E5 7C 61 D3 F4 F4 54 30 99 69 D2 AB 19 F3 7F A0 C9 B2 25 CC BC BC CA 73 F6 45 0D 
9F E0 ED E3 DB 53 78 1C 0E 87 C3 E1 FF 1F 1F E0 57 44 A9 E3 8C D5 C3 14 2F 2F 9C B6 F6 D4 C3 C4 
2C 76 69 31 2B 33 31 5A 76 56 6A E9 D0 3B CF F2 ED 53 78 74 CE E2 83 77 E2 33 0B 8A 58 69 6F AE 
EC 9A B7 F8 8A E2 B0 25 23 4D 14 4A E3 2E DC E6 DB 0E B3 6D A5 53 8E BE 85 93 BB 51 72 E8 B5 14 
41 ED 05 01 70 F6 93 AD 5E 33 FD 6F 64 57 58 43 10 22 01 5F 20 E0 73 4B 58 A9 31 21 3B 76 3C A6 
F5 1E 61 A9 52 5F 3B 95 2D 3D 07 69 BD DA B5 25 24 2E 97 CB 63 C5 87 ED 3D 97 6D 3E 6C 80 D1 9F 
32 4F 20 A3 FD 97 A5 9C 9C 31 76 7E C0 F9 FB EF 52 F3 8A 8A 0B 32 3F DC FD F7 9F EB C5 E6 AE 3D 
75 A5 8E 6F C4 21 E0 73 8A 72 BE BC BA 71 68 F9 E4 05 37 F4 67 F9 8F 69 AD 00 0A 2D DB 6A 96 BE 
BD F9 2C 39 2F 3F FD ED D5 BD 5B 2E 64 0A C4 25 28 AA FA 2D 20 FD 49 74 46 29 A7 30 87 25 6A 21 
E3 B2 26 3C 58 FE 87 B8 14 56 69 69 DE C7 6B 81 DB 1E A9 0D 1A D7 59 19 14 5A 9A 1B C0 87 D0 CB 
6F D2 32 BF BE BE 16 1C 70 21 55 20 C5 18 DE 8F 9F D9 6C F2 20 91 97 74 FD 76 16 0F 8F F4 1F 13 
E9 FF FD 98 D9 92 88 93 A3 F5 C9 B5 15 FB BD 69 60 56 6A 00 00 10 A6 9D 9E 31 6E 57 1C 07 60 A5 
8B FB D3 7D E7 D7 74 D3 71 DD 7C 5A ED E4 9E E0 9D 33 0F E5 F0 80 A4 6C D8 B5 BF CF A1 80 91 5D 
D5 48 EC FB 67 1F 08 AD B7 59 54 59 75 43 D1 EB ED 62 BC E7 5C F8 E7 49 BE 16 32 0B 62 00 00 82 
BC F7 D1 B1 9C EE 3C 1C 40 1C 22 3C 2F 64 BA 63 88 B8 1A BA A1 8D C7 BA C3 DE 7D 34 B0 9A F6 C8 
58 E3 43 EF 3C 7F FF 06 92 FF 9E 59 2E DB 04 24 35 B3 FE 93 F6 EE 19 D7 EA B7 ED 73 4B BA 65 51 
A9 D4 F6 7F 7C 90 83 67 BF CC 88 0B 1B 2E 6C 2B 10 00 60 0C 63 A6 F3 FC C3 DE 43 4C A4 3B A6 32 
04 54 0D 13 CB 9E 83 77 5E F0 EC 69 40 23 01 D0 DA 4F DF E8 9D B6 66 F5 A8 8B 7C BA B1 DD 20 07 
6B 8D 0F 85 00 00 40 D2 E8 35 7F D6 D5 25 EB 86 F6 F9 9B 6A E1 7D 32 58 C6 65 B5 1B BF 42 55 F6 
83 E2 85 2F 83 7D 42 17 65 0B 94 0D AC DC D7 05 CD EB 4C 07 99 69 D2 25 8C 39 3C B5 CD 0F 7E 6B 
A1 AC D4 CD 03 F2 C9 6F CC 1F 17 5C C1 A7 A0 11 93 5E 7A 5D 39 E2 AA F9 E3 E6 A9 51 56 6A 04 02 
F1 07 81 64 0B 81 40 C8 19 CD B8 6E 0B 81 40 FC 16 50 DB 79 47 3C F9 D9 46 D4 06 EA 6D 21 10 08 
39 03 C9 16 02 81 90 33 90 6C 21 10 08 39 03 65 A5 46 20 10 3F 07 94 95 FA 27 F3 C7 2D ED F9 93 
40 C1 FD 11 A0 AC D4 08 04 E2 0F 02 C9 16 02 81 90 33 90 6C 21 10 08 39 03 C9 16 02 81 90 33 90 
6C 21 10 08 39 03 C9 16 02 81 90 33 90 6C 21 10 08 39 03 C9 16 02 81 90 33 90 6C 21 10 08 39 A3 
E9 B2 25 F8 12 E2 3F 6B 94 4B 6F 1B 26 93 69 E3 30 CC 7B D7 CD B4 26 EF 63 2D E7 E0 39 17 27 30 
BF D3 DD 71 84 CF CE C8 64 2E 01 00 78 76 E8 78 66 35 7A 2E 79 96 75 7F 51 6F BB 99 57 AA A5 A1 
13 65 9E 9B 60 EB BA 33 9E 0F 40 70 93 2E F9 4F 74 EE CE 64 32 ED 5D A7 6D BD 96 FA A7 7B F7 67 
23 2D 88 CF 39 35 AF 93 12 38 82 5D 7B AC AB DF 47 56 2B 42 34 C3 7E 5B 78 19 18 3A CD D9 BA B4 
9D BE 3A C6 8A 3B FF F7 D2 D5 EB 2D 98 07 06 FE C0 DD 5C E5 02 AC C5 F0 03 67 E7 B7 27 97 66 BF 
BF B6 C7 EF EF D9 7C FD 4B 2B BB 28 02 00 45 7F C2 FE C3 13 BF EF 29 8E D1 54 19 04 D6 57 69 EE 
F9 FB 59 2E 23 BF EF BF 5F 96 76 3D E4 93 FE E0 B5 6D 69 C0 79 F3 CF DC AD AF FB 6E 09 09 B2 53 
CB B9 B7 CB 67 CD 02 46 9B B3 B3 CD FE 94 0C 13 BF 28 35 82 A8 54 E3 12 CE 5B 69 81 63 8E AE 25 
D6 35 91 DA 8A 64 EC E9 FF 27 D1 74 71 51 34 1B 31 75 44 1F CB 36 FA 5A 2D B4 5A AA 2B 52 94 8C 
3A 1A D3 FF 70 CD 02 00 12 46 51 A4 D3 95 19 2D 4D ED 46 4D 71 D4 60 C5 7D 2C 14 A7 CA 21 91 95 
D4 D4 35 BE A3 46 A7 90 94 2D 47 0E D4 FC 78 E1 76 86 B0 BC AC E0 CB 95 B0 34 D3 E1 AE AD A8 C0 
FD 78 E9 46 61 D7 D9 33 FA 18 A9 D0 18 A6 CE 5E D3 CD 32 AF 5C 4D 42 1D AE 9F 4C CD 20 4A 5E 21 
23 70 B5 C5 5A DA 7D A4 B6 22 41 E6 BD 3D 73 06 F7 62 32 99 D6 8E 63 96 1D 8F 65 E3 00 04 3B 6A 
5E AF 7E 7F C7 72 00 80 28 7A E0 DB DB DE FB 26 0B 07 00 DE DB 8D 03 FA 2E 7E 5C 0C 00 80 17 C4 
1C 5F E1 E9 6C 6F C3 B4 E9 E5 E1 BD E7 41 8E 10 00 40 F0 29 C8 C3 76 6C D0 D9 DD F3 46 38 5A 33 
9D D7 C5 72 7F 90 D7 9A 8F 66 D2 17 3C 3B C2 DB D1 DA D6 69 FE 73 DB 6D C1 3E 16 92 29 96 FF 60 
44 45 09 D7 4E 45 15 E8 58 5B 6A 8A 5F AF 65 69 C1 E3 FB F5 EA D3 DF DD 73 DE F6 F0 C4 52 1C 00 
14 DB 0F 75 D7 FB 7A F1 EA 57 B1 1C F1 12 C2 22 F3 FE 1A ED 64 40 01 BC E8 6B 52 B1 AA 89 9E 92 
F8 63 81 31 5A 99 28 E5 7F C8 40 63 85 9F 8C 94 20 56 47 66 E0 64 C7 BA 36 AA B6 22 FE C7 43 3E 
2B 6F B6 F4 3A 1E F5 EC E9 8D 40 0F CE B1 F9 4B C2 32 45 24 55 8B 7E 6D B8 6F 9F 67 0A 80 28 7E 
73 F9 35 4F F0 36 2C BA 10 07 61 CE AB 37 DC 76 8E E6 CA 00 82 E4 13 73 E7 9D 21 8D 3D 70 FB D9 
CB 47 E7 17 EA DD 5C B5 22 3C B3 3C ED 9C F0 D3 B9 C8 82 4E 9E 7E 81 41 DB 26 B6 FB F5 F3 F2 36 
D3 A6 CC 58 4B E7 4D 67 BB E5 A6 3C 3F B9 7E B1 37 76 F0 5F 6F 8B 9A BD E6 3F 0B 51 EE B9 49 BD 
43 48 22 11 0E 1A 96 23 FC F7 79 77 50 04 20 34 7A AD 3A D6 49 51 83 41 13 15 24 3D 38 BE 69 FD 
F4 4C A5 8B 3B 9D B5 A8 AD 07 0D 6F 7D EC 6C C4 E7 A9 BE 16 B4 D2 77 21 B7 4A AC 96 F6 D2 C2 00 
84 FC 12 3E D0 54 A8 DF DF 2E 98 02 5D 01 E7 95 F0 1B 98 6F 18 D1 8C 90 64 04 B1 5A 0F 00 97 19 
38 35 59 B1 96 86 94 56 C4 7B 17 16 91 F5 D7 FC 43 03 4C 55 30 80 4E 23 17 8E 0D F1 3C 1F F5 6D 
B0 A7 6E 97 BE 06 B9 77 E3 0A 67 EA 7C BA 92 D0 DE 67 36 EF 64 58 74 61 7F EB 84 A7 D9 06 7D 2D 
D5 31 E0 7F BE 74 E1 6B C7 F9 81 6E A6 74 0C 40 AF D7 A4 51 BA E3 AE BD 61 0F D3 57 01 00 6A A7 
65 BB D7 FC C8 3C 3D CD 4B 73 ED 25 8F 29 AA 6B 1B AA 6B EB CF 9B 11 E1 BA E7 62 E2 54 8B CE 7F 
78 8F 0B D3 74 DF 71 D8 CB 9C AE C8 D0 AC 4C 3D 4D A2 6A 9B 77 D4 06 00 00 5D BD 71 2B 16 3F 19 
B8 2A 32 91 EB AC A5 4C 31 70 1E 6D B1 FF C0 C5 78 AF 0E 6D 5E 9D 7F 20 B2 DB D0 5D 03 03 00 8C 
A6 42 23 09 F9 15 69 80 F1 32 4E 19 49 51 99 86 34 EB E7 21 33 88 55 2F AA 25 70 B2 62 2D 0D 29 
AD A8 94 9D 59 A2 A8 A7 A3 54 5E 84 A2 D1 4A 1D D8 E9 6C 21 18 EA DA D8 69 1C 7F 98 90 AD 13 F9 
C1 68 C8 22 37 FE 83 73 61 2F BF B5 78 96 A2 69 E7 AB 4D 06 E0 B1 52 58 BC 98 8D 23 FA 6F 17 B7 
1E 42 C8 21 B5 29 E6 E2 50 EF 4C BE BF 0E CD 9C 02 83 E0 17 0B 80 44 96 17 D1 FE 81 90 C8 74 2D 
1D 1D ED 5A FA DB 44 19 97 8F 53 35 A8 24 00 00 B2 76 9F B1 5D 77 6D BD F0 7A A2 C3 B9 67 0A 0E 
BB BB 32 48 00 00 18 C3 C4 54 85 FD 39 83 43 74 A0 91 00 F0 A2 2F 5F 39 2D BA 1A FC 49 A9 EA 7F 
6D AA 05 B1 0A B5 05 4E 46 AC A5 21 A5 15 91 D5 F4 55 B8 9F B2 38 38 D0 31 00 28 63 7D 2D 00 35 
43 35 0A 00 D9 A4 77 17 85 BF 6F 46 86 C4 1B 7B 2C D1 D2 16 7A B4 DA 1B 72 F9 4E 21 A9 F3 0A 23 
AA B8 A0 3A DD 7E 69 58 A0 83 5A F5 FB C9 E1 4C 69 93 05 86 1B 17 F4 F7 AE F3 F7 DF 26 67 E7 67 
25 3E 38 BA E1 E0 27 3D 57 F7 B6 7F 78 57 4B 06 C2 8C AB BB 76 9D BE FB 2A E9 1B 2B E7 CB F3 53 
9B 02 DE 6A B9 8E E8 20 1E 4E 63 9A 76 63 EC 44 0F F6 ED 0E 8E 61 0C 1C F1 D7 F7 6F 8B 94 CC 87 
F4 67 C4 04 1D 79 94 C9 11 94 7C BD 7D F0 68 82 9E 8B 5B 9B 5F 7F F2 E1 F7 45 66 10 71 F6 93 AD 
5E 33 FD 6F 64 8B 00 6A 0F 9C 8C 58 D7 0F 45 B3 21 EE 7A EF F7 ED B9 9E 5C 22 2A 63 C5 85 EC 3E 
9B 67 39 AA AF 1E 19 00 94 DA 39 B6 2F BC 16 1C 63 E0 6E AD 8E 61 5A 76 83 4D 3E 1C 3E 9F DD DE 
51 FC 71 54 34 1B 36 44 2F 7A FB E6 F3 B1 99 25 02 3E 3B 33 F1 C5 95 FF C2 92 24 97 5D C8 07 4D 
EE 6D 51 34 4D 94 3F 1F DF 1A BE 33 A7 54 04 2A AD EC 47 6C DF 3F AB E3 9F 3E B1 25 03 4C 49 43 
E1 EB C9 1D 0B 02 73 4A 45 40 37 EA 3E 6C 4B B0 77 57 E5 F2 57 1F 89 C1 1C ED 40 F3 BA F2 C5 78 
D6 D6 2A 5F 86 D3 BB CC 0F 5C B2 65 BD FF 90 DE 05 38 A5 A5 A5 C7 9A C0 99 66 48 B5 7E 22 32 83 
48 08 F2 DE 47 C7 72 BA F3 70 00 72 ED 81 93 11 EB FA 41 33 9F B9 77 93 68 43 E0 C4 BE 7F F3 80 
D1 C6 71 52 E0 FA 21 E2 D5 14 24 D5 8E 8E ED 48 2F E9 83 AD D5 31 00 68 61 3B C4 82 FC 4A E8 60 
AE 22 6E 62 34 B3 E9 41 BB 15 03 F6 AE 1A B1 3D 47 00 54 0D 93 2E FD 26 75 C6 00 E4 F0 FB 9D 46 
EE 25 8F F6 A8 95 00 F9 E4 37 06 05 F7 47 D0 14 AF A2 59 28 04 02 21 67 20 D9 42 20 10 72 06 92 
2D 04 02 21 67 20 D9 42 20 10 72 06 92 2D 04 02 21 67 20 D9 42 20 10 72 46 23 17 40 FC 08 53 10 
08 C4 1F 45 A3 17 40 34 72 B9 29 5A C6 22 01 5A DA F3 1B 83 82 FB 23 68 4A EF 07 0D 12 11 08 84 
9C 81 64 0B 81 40 C8 19 48 B6 10 08 84 9C 81 64 0B 81 40 C8 19 48 B6 10 08 84 9C 81 64 0B 81 40 
C8 19 48 B6 10 08 84 9C 81 64 0B 81 40 C8 19 CD B7 97 3C C1 F9 70 62 FE F4 7F 92 07 1C BE F2 77 
17 B4 BD 29 C1 49 BE 75 FC D0 99 6B 4F DF 67 96 E0 40 53 D7 37 ED 68 E7 34 6C FC A8 5E 46 D4 DC 
8B 93 5C 37 7D 10 5F 46 66 98 58 BB 4D F5 F5 76 31 55 48 3B 35 75 6C 40 3C 1F 00 B0 96 6E FB 43 
D7 59 D1 41 90 FD E4 F4 BE 23 17 A3 DE 64 72 00 63 B4 62 F6 1F 3D CB 7B 44 67 F5 CA 77 0D 27 7A 
AD BB D7 15 B6 F1 AC F3 E7 66 98 2A 54 DE BD CE 82 DF C1 73 AA 18 03 A0 A0 D9 B6 BB FB EC 95 B3 
FB 68 53 84 A9 55 EC 19 E8 63 74 7D 4F AC 94 C7 EC BA F5 EE A1 3E BC C7 47 B6 04 9E 7F 96 C6 C1 
49 74 63 DB 91 F3 97 4F EF A1 DD CC 49 0A 7E 19 AA B9 C5 6D 7F E8 DA F6 C9 27 B7 04 84 BD 48 4C 
65 71 41 49 DF CA C3 DB 6F DE 40 63 1A 00 08 F3 5E 9C DA 1D 74 3E EA 5D 36 0F 80 AC AA DF BE 73 
CF 21 DE 3E 43 CD E8 12 3B C7 97 87 40 73 68 F0 A5 95 DD C4 7B DD E2 05 51 CB 06 2F BE C7 E9 B2 
F9 CE 21 27 35 12 00 E0 85 6F 2F 1E 0C 3E 7F 3B 26 B9 A0 8C A4 D4 C2 D8 DC CA 71 C8 C4 89 2E 66 
DC B0 49 EE 87 2C FF 0D 5B 62 51 B9 49 2A C1 BA 36 CD 65 67 EB E0 CB AB 3B 2B 01 00 08 52 C3 57 
4C DB F6 CD 3D 70 BF 0F 53 ED 37 E9 A7 10 0D 27 3A 3A 5A F2 10 5E FA F1 B8 97 CB B0 09 4E 56 FD 
D6 BD E2 34 A2 4E 79 A7 BA 4F 44 EC 17 3B 47 58 DB 8D DD 70 E1 59 52 4E 51 69 49 41 66 E2 CB C8 
C3 AB A7 CD 3E 9E 2C 20 44 D9 A1 E3 AD 9D 37 C5 B0 4A 4B D8 39 49 4F 8E CF 77 B0 72 DE F8 AA 94 
20 08 82 FB 66 43 7F 9B A9 37 0A 70 82 20 08 61 56 E4 22 07 2B C7 D9 41 B7 DE 67 E4 17 E6 A6 C4 
86 6F 9D 60 67 E5 BE E9 59 A1 A8 FC 36 38 FB FE 62 47 97 25 1B 3D ED DD 76 C5 F3 2A EE 5E 77 C1 
2A 96 66 87 8E B7 1E B0 F9 15 9B CF E7 95 B2 B3 13 22 57 3B 59 39 6F 89 E3 8A CF 56 D8 83 0B 8A 
0B 58 2C 16 8B C5 4A BF E1 63 67 EB 75 2D 5D FC 57 41 B1 40 90 72 C2 D3 6E E0 DA 5B 69 5C 9C 10 
95 24 86 2E E8 6B 37 25 24 53 F8 63 DC FC 73 90 6C F0 55 C3 24 CA BD BB 73 E3 A1 EB B1 5F B2 F3 
73 92 1F 1D 9C 66 6F 35 EC E0 67 3E 41 F0 13 82 86 33 7B CD 3A 18 95 90 55 C8 66 7D FB 1C 73 E3 
F8 C6 79 CB 22 BE D5 74 8C 28 3B 74 BC B5 9D 4B 9F 9E 53 CE 65 88 CF 0A 92 8F 8C E9 ED D4 9F 69 
3D ED 66 21 4E 10 84 28 FF FE 3A 57 AB 5E D3 02 AF BD CD 28 28 29 CA 4F 7B 7B E7 F8 BA 29 63 B7 
BC E6 88 B2 43 C7 DB 0C DC F6 9E 57 B5 42 3C 3F 72 8A 4D 3F FF D7 1C 82 20 08 41 C6 95 A5 CE 3D 
C6 04 BE 94 12 FC 9F 8B 14 19 A9 37 CD F1 52 24 38 89 A7 16 2F BC D9 C1 7F 4F E7 7F 47 AE 6F 86 
0A E5 1D 7E C2 91 75 A7 4B 87 1E 38 B7 9C A9 2A 7E B5 D2 DB 31 F5 DA 31 5D A6 12 04 09 08 A8 C8 
36 4C A3 9B DA 8D 9A E2 78 72 7A DC C7 42 51 17 3A B9 6A 25 DC B8 C3 01 51 8C C9 27 76 CD 16 67 
CB D5 EC EA B1 F8 9F 16 25 C3 E6 6F BF 30 FA CC 74 53 05 00 9C F5 F4 6C 8C D6 C8 C3 33 4C 84 B7 
B6 84 BC 9F B5 BA 1B BD 7E 05 25 20 91 C8 54 1A 95 4A A3 2A A8 A9 50 81 A2 D1 B1 8B B6 64 8A 64 
92 82 8A BA 06 00 00 50 55 15 48 24 92 AA BA 86 46 79 82 2D CE 87 0F E9 65 2D 87 75 D4 57 24 01 
28 B7 E9 D9 DB 68 DB 91 74 B6 08 F4 C8 F0 27 80 69 39 F8 AE 74 28 FF A3 C7 B8 C9 56 FF FA BE 4A 
E7 43 6B EE BB 27 29 F4 9E CB C7 F7 31 A3 03 80 1A 43 43 B7 4D 37 67 99 B5 50 0C 07 79 99 84 FD 
7B F4 B5 9B 9F 15 BD F8 C5 E1 10 D1 D0 99 B6 57 B6 7F 03 00 00 5E FC 91 2D 11 30 E6 70 E0 DC 2E 
E2 CE 98 72 27 C7 89 9D 1C C6 F2 44 14 60 D5 6A 9C 30 EB E6 BA E9 5B 52 5D 03 0E FC 3E FD 2C 00 
68 86 B9 2D 82 FB E9 CC D2 85 91 ED D6 EE FD CD 3C D3 78 04 69 F7 A2 72 0C 3D 46 59 AA 4A 26 92 
22 91 24 8E D4 C8 59 5D A5 92 47 CF 0B 8D DD 5C DB 55 49 82 84 A9 75 1B DA 5B 2D E5 5E 4C 1E 0E 
00 78 CE FD 73 1F 5B 8F 71 35 69 D9 7D 9C 03 44 9D 7B 55 44 D4 AF A0 24 A2 DC 73 93 7A DB DA DA 
DA 58 F7 F0 58 76 83 D1 CF C9 AC 86 E1 B5 A0 F4 D7 84 49 9D BF 6E 9D E4 BD ED EC 83 F8 C4 A8 23 
A7 F3 ED 67 8C 6C 2B 35 35 FC 6F 0F EF EB 8B 24 A1 61 57 43 1A 60 EA 1D ED 8C 4A EF ED 0A 38 73 
EF 75 72 4E A9 B0 AE FD 0A 48 6A 36 33 C7 AA DD DA 7B 35 93 97 16 71 30 D6 C2 6B 94 E9 77 17 0A 
D2 1E 3C CC 35 74 1F 62 A1 5C 2D 2A 24 05 45 4A AD 61 12 E6 DE DD 34 73 C3 67 E7 9D FB E7 5A FF 
6E 9F CC 26 F6 B6 44 39 37 FE F6 BD DC 7A 75 D0 7C 1B 75 0C 4A 9A C7 26 79 47 58 94 55 04 EA 06 
6A 62 DF 72 5E F8 0D F1 B9 C1 C2 01 80 6A 36 FB BF 63 D3 4C 40 46 CE EA 6A 88 4A 72 4A 80 A1 A7 
56 5D CD C8 0C 5D 06 29 26 B7 44 08 80 A5 DF 0C 49 EF 3C BD 6F 4B 0C B0 4E A3 DD 54 66 9D 7D 5E 
60 E7 A4 89 D5 59 B0 86 A2 88 73 88 B6 A7 11 22 41 49 56 EC D9 8D 6B A6 F8 61 21 3B 9C 65 65 4A 
96 80 A4 68 64 E7 64 77 3D BC AC E8 D9 81 79 3B 12 4B CC C6 6C 62 6A FD 19 3D AD EA E0 AC C7 01 
2B 2F 60 43 03 46 B7 A6 02 80 D9 CC E0 03 EA 07 8F 5E DA EC BD 93 25 00 4C DD B4 FB 80 71 73 66 
BB 9B AB C8 70 2B D5 78 98 B7 ED A9 4D 81 47 5F C6 F3 87 04 F4 D4 E0 3C 2E 3F 21 2C CE 2A 26 A9 
1B A8 37 E8 A3 4A 14 C7 EE 9E 19 FE A1 C0 D2 77 48 17 29 53 9A F2 4E 53 65 8B 95 98 F0 ED D3 3D 
1F A7 33 95 C7 A6 F7 BA DD 7B CF B5 5D F6 CA B2 8B FD DE 50 94 B5 94 F1 D7 29 2C 21 68 51 01 94 
3A 2F 3A 1E E6 8D 0B B3 23 16 78 5D E7 97 F7 76 A4 E6 AC AE 06 59 45 4B 19 DE 65 B1 45 D0 A2 CA 
79 51 51 76 11 A1 DA 52 85 02 82 A4 2B A1 89 AC 8C E5 03 ED 31 12 00 21 14 8A B0 B3 0F F3 FA 0D 
D6 AE AB 60 4D C4 39 44 75 68 00 00 FA 46 0B 7C EF 5F F3 0D 7D 5D EC D4 5F AD 3E 7D 2E BC E0 A1 
FF 9C 60 6C 4D C8 8E 3E 1A 18 5E 9A 74 75 8B CF D2 A9 DC 03 17 57 31 95 FF A4 1C B4 65 59 77 B7 
7A AF 8D EE B6 2E 78 89 6D 79 D7 86 A2 C5 F4 F4 63 7A FA 01 CE 2F C8 48 7C 75 FD D0 86 F5 5E AC 
96 11 9B EC 65 64 73 C5 D4 6C 67 8D 51 1D 75 E0 79 9F 6D 2B DA 50 21 EE FB 71 0A 5D 53 19 7F 9B 
5E 28 6E 4E F5 04 17 B1 5B 4E 0D 70 79 B4 7A 97 97 BF D6 F1 B5 CE 3A BF D7 57 24 4D 14 62 AA F9 
BC 88 E8 0A A2 02 BA 53 D5 3D 0E 3F 7C F0 07 6B 16 00 50 8D FB F6 D2 CA 8C 38 13 CD C6 01 80 44 
D3 D4 D3 37 30 30 D0 55 A7 55 36 D7 F2 6C C3 5A 32 34 0B 00 A8 86 3D AD 19 A9 91 D7 93 79 95 C7 
88 A2 37 E1 0F 8B 5A 39 58 69 61 BC 84 4B 91 5C A7 6D A1 97 23 C2 C3 C3 C3 C3 23 22 8E 7A B7 FE 
78 EE 56 86 B0 AE 82 75 5A 8F 8B 70 20 2B 28 48 0E 67 65 51 F6 2D FA 5D 49 4B CB B6 0C 0C 00 30 
E5 36 03 C6 0F D4 2D 78 13 97 27 AA 5F F1 DF 01 BC 28 EE 84 EF C4 0D 29 03 03 4F AC 76 D6 13 CF 
1D 12 65 1C DE 77 17 60 34 0D A3 4E 8E 13 66 38 69 96 26 27 B3 6B 71 0C D5 64 D4 EA A5 73 56 2D 
EC A9 59 35 4C 54 E3 3E B6 9A E9 97 43 DF 95 54 1B 69 E2 02 4E 99 EC A1 27 59 DD 61 92 7B AF B1 
5B 0E CE 35 B8 E7 E7 B5 F3 49 81 B4 D9 01 F9 E5 F7 EB 3F FE 02 28 75 9C B1 7A 98 E2 E5 85 D3 D6 
9E 7A 98 98 C5 2E 2D 66 65 26 46 3F 7A DD B0 8F 32 BD F3 2C DF 3E 85 47 E7 2C 3E 78 27 3E B3 A0 
88 95 F6 E6 CA AE 79 8B AF 28 0E 5B 32 D2 44 A1 34 EE C2 6D BE ED 30 DB 56 3A E5 E8 5B 38 B9 1B 
25 87 5E 4B 11 D4 5E 50 32 79 32 00 00 41 88 04 7C 81 80 CF 2D 61 A5 C6 84 EC D8 F1 98 D6 7B 84 
A5 4A 3D CD A4 1A DA 5B A9 7E 3E 75 E8 E6 17 0E 0E 84 20 F3 71 E8 9D 3C 83 DE B6 BA BF D7 DB 5D 
36 C2 CC CB AB 3C 67 5F D4 F0 09 DE 3E BE 3D 85 C7 E1 70 38 1C BE 90 28 4B 39 39 63 EC FC 80 F3 
F7 DF A5 E6 15 15 17 64 7E B8 FB EF 3F D7 8B CD 5D 7B D6 EA 18 8C 61 39 6A 8A B3 A1 44 A7 8A 6E 
39 73 89 B3 F0 C2 5C EF ED 97 9E 27 66 B2 0A F3 52 E3 EE FD E7 3F 7D F2 3F F1 3C 00 00 42 C4 2F 
2A A8 A0 B0 88 23 AC 28 49 A2 B7 9F 10 B0 77 92 E2 45 5F 9F 83 6F 4B 7E 23 E5 FA 53 5A D7 FF 17 
4C B3 C7 F2 53 FF 75 3A 72 E8 DC E6 E9 01 39 1C 00 8C 61 D4 D1 DA 65 F1 B2 C1 86 35 BF C8 2B 47 
98 76 7A C6 B8 5D 71 1C 80 95 2E EE 4F F7 9D 5F D3 4D C7 75 F3 69 B5 93 7B 82 77 CE 3C 94 C3 03 
92 B2 61 D7 FE 3E 87 02 46 76 55 23 B1 EF 9F 7D 20 B4 DE 66 51 25 0D 3B 45 AF B7 8B F1 9E 73 E1 
9F 27 F9 5A C8 2C 88 01 00 54 4F 9E 0C 00 78 5E C8 74 C7 10 71 35 74 43 1B 8F 75 87 BD FB 68 60 
35 ED 91 9A F4 9D C4 B0 5D 71 F0 EF 3D DB F6 4F EA BB A6 8C 42 53 35 EE 3E 7C C7 C1 A9 1D 7E DB 
C4 D9 92 6E 59 54 7A FD 76 16 0F 8F F4 1F 13 E9 FF FD 1A B3 25 11 C7 07 39 4D B3 2E FE 00 00 18 
FE 49 44 41 54 78 F6 CB 8C B8 B0 E1 C2 B6 02 01 00 C6 30 66 3A CF 3F EC 3D C4 44 66 FC 6B 81 AC 
ED E4 7F 5A ED CC BE C3 27 56 8C DF 58 84 03 89 61 DC C5 DE 69 E2 98 36 34 E0 00 E0 AC 30 9F 41 
61 15 17 AB BA 1E FC CF AE B2 2C C6 E8 EA BD 6F 67 F1 94 85 73 16 A9 FD 1B 38 B6 AD E2 6F 31 74 
47 59 A9 9B 07 E4 93 DF 18 14 DC 1F 01 CA 4A 8D 40 20 FE 20 90 6C 21 10 08 39 03 C9 16 02 81 90 
33 90 6C 21 10 08 39 03 C9 16 02 81 90 33 90 6C 21 10 08 39 03 65 A5 46 20 10 3F 07 94 95 FA 27 
83 96 F6 FC C6 A0 E0 FE 08 50 56 6A 04 02 F1 07 81 64 0B 81 40 C8 19 48 B6 10 08 84 9C 81 64 0B 
81 40 C8 19 48 B6 10 08 84 9C 81 64 0B 81 40 C8 19 48 B6 10 08 84 9C 81 64 0B 81 40 C8 19 48 B6 
10 08 84 9C D1 F4 4D 99 F1 EC D0 89 6E 9B 3F 56 39 A2 E8 B0 EF E6 F6 EE 52 B7 F0 FD 73 20 38 C9 
B7 8E 1F 3A 73 ED E9 FB CC 12 1C 68 EA FA A6 1D ED 9C 86 8D 1F D5 CB 88 9A 5B 25 7F 3D 99 61 62 
ED 36 D5 D7 DB C5 54 21 AD 7A 96 F6 75 56 74 10 64 3F 39 BD EF C8 C5 A8 37 99 1C C0 18 AD 98 FD 
47 CF F2 1E D1 B9 4A 02 29 4E F4 5A 77 AF 2B 6C E3 59 E7 CF CD A8 9A B8 B5 CE 82 DF 29 CF E4 FE 
FD 4F 05 CD B6 DD DD 67 AF 9C DD 47 9B 52 2D 6B FC 40 1F A3 EB 7B 62 A5 3C 66 D7 AD 77 0F F5 63 
00 10 82 CC 3B 1B A6 6C E0 AC 8B DC 61 FB 3D F2 04 37 29 6C FB BA FD 57 E3 59 22 AA 76 E7 C1 73 
D7 2C 74 31 96 FB FC 89 D5 DC E2 B6 3F 74 6D FB E4 93 5B 02 C2 5E 24 A6 B2 B8 A0 A4 6F E5 E1 ED 
37 6F A0 31 0D 00 84 79 2F 4E ED 0E 3A 1F F5 2E 9B 07 40 56 D5 6F DF B9 E7 10 6F 9F A1 66 74 89 
6D 91 F1 9C 8B 93 DC 0F 59 FE 1B B6 C4 82 56 ED 60 65 5C 14 B5 FF 72 1C EF BB 68 4C E7 EF F9 0E 
F1 C2 B7 17 0F 06 9F BF 1D 93 5C 50 46 52 6A 61 6C 6E E5 38 64 E2 44 17 33 6E 58 CD AA 08 D6 B5 
69 2E 3B 5B 07 5F 5E DD 59 09 00 40 90 1A BE 62 DA B6 6F EE 81 FB E5 38 B3 69 93 B3 60 8B B2 42 
C6 75 77 DF 1D 9B CD FA 4E 61 69 19 DE E8 34 D9 72 8A 84 4F D8 2F 76 8E B0 B6 1B BB E1 C2 B3 A4 
9C A2 D2 92 82 CC C4 97 91 87 57 4F 9B 7D 3C 59 20 4E 9E EE BC 29 86 55 5A C2 CE 49 7A 72 7C BE 
83 95 F3 C6 57 A5 04 51 3D 4B 3B 21 CC 8A 5C E4 60 E5 38 3B E8 D6 FB 8C FC C2 DC 94 D8 F0 AD 13 
EC AC DC 37 3D AB 48 8B 8E B3 EF 2F 76 74 59 B2 D1 D3 DE 6D 57 7C 65 3E F5 BA 0B 56 B1 34 3B 74 
BC F5 80 CD AF D8 7C 3E AF 94 9D 9D 10 B9 DA C9 CA 79 4B 1C 57 7C B6 C2 1E 5C 50 5C 20 0E 6E FA 
0D 1F 3B 5B AF 6B E9 E2 BF 0A 8A 05 38 C1 FB 10 34 C5 A5 6F 0F 6B 2B 2B FB 45 4F 4B 2B AA 2E 7D 
BD D5 A5 FB D0 AD F7 52 8B 79 EC A4 6B 6B 5C 6C 86 06 25 F0 9B D9 ED FF 1F 24 D3 BE 57 0D 93 28 
F7 EE CE 8D 87 AE C7 7E C9 CE CF 49 7E 74 70 9A BD D5 B0 83 9F F9 04 C1 4F 08 1A CE EC 35 EB 60 
54 42 56 21 9B F5 ED 73 CC 8D E3 1B E7 2D 8B F8 26 AC 51 BB 28 3B 74 BC CD C0 6D EF 79 92 07 C5 
8D A4 B4 98 95 F1 E6 A2 DF 40 AB 5E 4B 1E B0 71 82 20 08 51 FE FD 75 AE 56 BD A6 05 5E 7B 9B 51 
50 52 94 9F F6 F6 CE F1 75 53 C6 6E 79 CD 91 5A 15 9E 1F 39 C5 A6 9F FF 6B 0E 41 10 84 20 E3 CA 
52 E7 1E 63 02 5F 4A 69 0B FF 67 24 BD DA 10 9A 27 05 06 89 AC A4 A6 AE A1 21 F7 AF D2 66 82 9F 
70 64 DD E9 D2 A1 07 CE 2D 67 96 E7 77 A6 B7 63 EA B5 63 BA 4C 25 08 12 10 00 40 C2 28 8A 74 BA 
32 8D 6E 6A 37 6A 8A E3 C9 E9 71 1F 0B 45 5D E8 D5 92 A2 72 E3 0E 07 44 31 26 9F D8 35 DB 42 11 
00 40 B3 AB C7 E2 7F 5A 94 0C 9B BF FD C2 E8 33 D3 4D 15 00 70 D6 D3 B3 31 5A 23 0F CF 30 11 DE 
DA 12 F2 7E D6 6A 71 92 8A BA 0B 4A 40 22 91 A9 34 2A 95 46 55 50 53 A1 02 45 A3 63 17 6D C9 48 
92 14 54 D4 35 00 00 80 AA AA 40 22 91 54 D5 35 34 2A 73 CA 99 CF 3E 1A 39 9B F3 72 A5 EB 22 41 
15 FB 3F 5E BA 51 D8 75 F9 8C 3E 46 2A 24 50 71 F6 9A 7E 6A C8 91 AB 49 D3 CC 3A FC 5E AD 04 D3 
72 F0 5D E9 50 FE 47 8F 71 93 AD FE F5 7D 95 CE 87 D6 DC 77 4F 52 E8 3D 97 8F EF 63 46 07 00 35 
86 86 6E 9B 6E CE 0D AB 5A DC 48 E8 34 3A DD D2 75 8C C3 C1 1B 31 29 6C 51 2F 06 85 17 7F 64 4B 
04 8C 39 1C 38 B7 8B 38 15 A5 72 27 C7 89 9D 1C C6 F2 44 14 60 D5 5A A1 30 EB E6 BA E9 5B 52 5D 
03 0E C8 71 3F 0B 00 9A 6B 6E AB 2C 2D 78 7C BF 5E 7D FA BB 7B CE DB 1E 9E 58 FA 1B 65 36 6A 0C 
82 B4 7B 51 39 86 1E A3 2C 6B E4 A4 27 49 66 1F 14 15 25 5C 3B 15 55 A0 63 6D A9 29 91 C8 59 90 
F6 E8 79 A1 B1 9B 6B BB 2A E9 AA 31 B5 6E 43 7B AB A5 DC 8B C9 C3 01 00 CF B9 7F EE 63 EB 31 AE 
26 2D BB 8F 73 80 A8 73 AF 8A 88 FA 15 94 44 94 7B 6E 52 6F 5B 5B 5B 1B EB 1E 1E CB 6E 30 FA 39 
99 D5 30 BC E1 E0 45 5F 93 8A 55 4D F4 94 C4 55 61 8C 56 26 4A F9 1F 32 B8 0D DE 6F 44 9E E0 7D 
7D 91 24 34 EC 6A 48 03 4C BD A3 9D 51 E9 BD 5D 01 67 EE BD 4E CE 29 15 36 E5 B1 71 4E CA BD F3 
77 D9 AD FB 75 D7 A1 00 08 D2 1E 3C CC 35 74 1F 62 51 3D 7D 2E 49 41 91 52 6B D4 84 B9 77 37 CD 
DC F0 D9 79 E7 FE B9 D6 F2 AD 59 D0 1C 73 5B 24 8D 5E AB 8E 75 52 D4 60 D0 44 05 49 0F 8E 6F 5A 
3F 3D 53 E9 E2 CE FA A6 62 FF 1D 11 16 65 15 81 BA 81 9A D8 B7 9C 17 7E 43 7C 6E B0 70 00 A0 9A 
CD FE EF D8 34 13 28 57 8A 10 92 48 84 83 86 E5 08 FF 7D DE 1D 14 25 2A 11 95 E4 94 00 43 4F AD 
BA 9A 91 19 BA 0C 52 4C 6E 89 10 00 4B BF 19 92 DE 79 7A DF 96 18 60 9D 46 BB A9 CC 3A FB BC C0 
CE 49 13 AB B3 60 8D DE 8E 38 45 76 7B 1A 21 12 94 64 C5 9E DD B8 66 8A 1F 16 B2 A3 89 11 C4 F9 
25 7C A0 A9 50 BF 57 82 29 D0 15 70 5E 09 9F 00 F8 2D 52 5E D5 04 67 3D 0E 58 79 01 1B 1A 30 BA 
35 15 00 CC 66 06 1F 50 3F 78 F4 D2 66 EF 9D 2C 01 60 EA A6 DD 07 8C 9B 33 DB DD 5C A5 DE 6E 15 
E5 9E 9B E2 10 46 16 F1 05 22 CD 5E 73 F7 1E 18 DF 8E 0A 00 C2 E2 AC 62 92 BA 81 7A 83 3E B9 44 
71 EC EE 99 E1 1F 0A 2C 7D 87 74 91 32 C3 29 77 34 83 6C 51 B5 CD 3B 6A 03 00 80 AE DE B8 15 8B 
9F 0C 5C 15 99 C8 75 D6 FA 73 F3 52 53 94 B5 94 F1 D7 29 2C 71 F6 73 A5 CE 8B 8E 87 79 E3 C2 EC 
88 05 5E D7 F9 E5 BD 1D B1 52 98 D3 15 19 9A 32 12 53 93 55 B4 94 E1 5D 16 5B 04 2D AA 9C 17 15 
65 17 11 AA 2D 55 28 20 48 BA 12 9A C8 CA 58 3E D0 1E 23 01 10 42 A1 08 3B FB 30 AF DF 60 ED BA 
0A D6 44 9C 22 5B 87 06 00 A0 6F B4 C0 F7 FE 35 DF D0 D7 C5 4E FD D5 9A A2 2F 18 4D 85 46 12 F2 
45 DF BB 19 78 19 A7 8C A4 A8 4C FB 4D 35 AB 2C EB EE 56 EF B5 D1 DD D6 05 2F B1 2D EF CB 50 B4 
98 9E 7E 4C 4F 3F C0 F9 05 19 89 AF AE 1F DA B0 DE 8B D5 32 62 93 3D A3 9E 3E C0 34 3D 76 FD EB 
DD 96 7D 7B 9D D7 AE 8C 62 85 F2 37 00 85 AE A9 8C BF 4D 2F 14 B7 AE 7A 82 8B D8 2D A7 06 B8 3C 
5A BD CB CB 5F EB F8 5A 67 1D 39 CF 8F DA CC CA 4B 94 71 F9 38 55 99 FA 9B 36 CE FA 41 35 EE DB 
4B 2B 33 E2 4C 34 1B 07 00 12 4D 53 4F DF C0 C0 40 57 BD CA 47 56 AC 14 DA 5A 32 34 0B 00 A8 86 
3D AD 19 A9 91 D7 93 79 95 C7 88 A2 37 E1 0F 8B 5A 39 58 69 61 BC 84 4B 91 5C A7 6D A1 97 23 C2 
C3 C3 C3 C3 23 22 8E 7A B7 FE 78 EE 56 86 B0 AE 82 75 5A 8F 8B 70 20 2B 28 48 0E 67 1B 0A C6 30 
31 55 61 7F CE E0 88 75 0B 2F FA F2 95 D3 C2 DC E0 F7 C8 2E 5A 1D BC 28 EE 84 EF C4 0D 29 03 03 
4F AC 76 D6 13 CF 1D 12 65 1C DE F7 B4 DF 18 4D C3 A8 93 E3 84 19 4E 9A A5 C9 C9 EC FA A7 26 27 
91 95 34 B4 B4 74 2C 46 6D DA 3A 84 73 6C FE DF 57 33 85 00 40 35 EE 63 AB 99 7E 39 F4 5D 49 B5 
81 27 2E E0 94 C9 1E 89 92 D5 1D 26 B9 F7 1A BB E5 E0 5C 83 7B 7E 5E 3B 9F 14 C8 F9 3C 4E 93 65 
4B 98 71 75 D7 AE D3 77 5F 25 7D 63 E5 7C 79 7E 6A 53 C0 5B 2D D7 11 1D 94 9A C3 36 B9 45 A9 E3 
8C D5 C3 14 2F 2F 9C B6 F6 D4 C3 C4 2C 76 69 31 2B 33 31 FA D1 EB BC FA B7 58 00 A0 77 9E E5 DB 
A7 F0 E8 9C C5 07 EF C4 67 16 14 B1 D2 DE 5C D9 35 6F F1 15 C5 61 4B 46 9A 28 94 C6 5D B8 CD B7 
1D 66 DB 4A A7 1C 7D 0B 27 77 A3 E4 D0 6B 29 82 DA 0B 02 E0 EC 27 5B BD 66 FA DF C8 AE B0 86 20 
44 02 BE 40 C0 E7 96 B0 52 63 42 76 EC 78 4C EB 3D C2 52 A5 C9 4E 30 1F D2 9F 11 13 74 E4 51 26 
47 50 F2 F5 F6 C1 A3 09 7A 2E 6E 6D 7E BB 6C D5 C2 CC CB AB 3C 67 5F D4 F0 09 DE 3E BE 3D 85 C7 
E1 70 38 1C BE 90 28 4B 39 39 63 EC FC 80 F3 F7 DF A5 E6 15 15 17 64 7E B8 FB EF 3F D7 8B CD 5D 
7B EA 4A ED E7 10 22 7E 51 41 05 85 45 1C 61 95 93 98 BA DD A2 C0 79 AD 9F F9 2F 08 7A 53 42 00 
DD 72 E6 12 67 E1 85 B9 DE DB 2F 3D 4F CC 64 15 E6 A5 C6 DD FB CF 7F FA E4 7F E2 79 75 54 45 A2 
B7 9F 10 B0 77 92 E2 45 5F 9F FF B5 77 A7 01 4D 5C ED 1E C0 4F C2 12 16 0D CB 0B 2A AB 68 2B 5A 
6A 41 0D 41 C0 8D BD 82 A0 62 5D 10 F5 B5 AE 40 8A A0 28 75 B7 4A 51 11 41 2A AD 78 59 B4 52 5C 
A0 80 15 54 C0 6A DD B0 D4 2A 82 16 57 5A 51 40 10 22 06 12 48 48 62 32 73 3F 44 0A 04 C2 16 B8 
DE 21 CF EF 1B C9 39 99 E1 CC F1 99 C9 30 9E 7F FC 5F 4D 44 AE 5C 72 5F 2C 92 D5 75 54 5E A6 44 
AD 3F CC E4 8A 91 86 C9 E4 79 11 09 8C 89 9A 83 F0 9C DA 1B 64 DD 29 5B 4E 9D FC EC 58 62 DA FE 
D5 31 4C 1E 42 64 AA C9 78 BA FB A6 CD 73 8C 65 86 A9 77 0C AF 1F EE B1 FF B4 56 4A 6C 42 F4 DA 
44 26 1F 91 34 8D 27 BA 04 26 C6 2C 98 A8 45 62 DF 48 BD 29 A2 47 5A B4 79 36 4E D9 60 BA BB 69 
6C 5A D6 3F CB 43 2C 64 76 24 23 84 90 B0 EE 51 61 11 6F 32 1F 43 48 72 FF 0B AB CB 58 ED 94 21 
F9 18 0D 63 9B D9 7B 92 18 33 74 C8 1D F7 47 D6 93 78 FC 92 28 5F FF 8C 2A 81 48 8C 50 A0 A3 AD 
DA 48 DF C4 94 A0 4F 28 1A 13 82 0F 87 46 7C 1B 36 77 7A 3D A6 AC 6F 39 FB 9B C3 6B CD 89 5F B5 
A4 87 65 23 37 EF 4A 0D 1F CB 09 F3 C9 09 6B 69 63 1E 9A 9D EC E9 E8 EB 5C 9D 9D 1E 9E 1E 59 2F 
44 88 4C 35 B5 76 0B 4E 62 CC 35 EB FC F8 63 AC 73 81 9E E7 FE FD 71 A8 47 FC 89 09 6D DF A7 7C 
B4 34 32 BC D4 F7 EB E0 5D A3 4E 47 7A 19 BA 86 9D D6 3A 73 24 E9 A7 AD 4B F7 72 30 44 A2 9A 4E 
B0 77 FD AF CF 47 14 C4 EB EC A3 4E DA B5 7E 10 99 3A 91 71 24 BA 71 C5 86 AF 36 6A FD 78 78 F1 
C7 04 BD FA ED E3 5A F2 B0 46 AD 14 18 93 41 0C 0E EE 40 90 67 54 07 C1 5F 15 00 00 8A 05 CA 16 
00 80 60 A0 6C 01 00 08 06 CA 16 00 80 60 A0 6C 01 00 08 06 CA 16 00 80 60 FA F8 00 C4 40 EC 0A 
00 40 A1 F4 F9 01 88 3E 3E 6E 0A 8F B1 48 81 47 7B 06 31 38 B8 03 41 9E AB 1F F8 92 08 00 20 18 
28 5B 00 00 82 81 B2 05 00 20 18 28 5B 00 00 82 81 B2 05 00 20 18 28 5B 00 00 82 81 B2 05 00 20 
18 28 5B 00 00 82 E9 97 A5 F0 71 41 55 7E 4A DC 89 AC FC 92 D7 3C 9C EA 16 77 61 9F 8D 82 67 52 
2B 54 2A B5 83 F0 F6 8F 11 87 4E 5F 2F E3 A0 21 23 ED E7 AF DB E6 E7 30 42 E6 22 AE 44 D7 FF A9 
D4 DD B4 54 F8 00 EA 4E C9 1F 27 2B AC 48 67 38 3A AC 88 3E 5F 54 FE 86 DD C0 7C 55 D5 F4 C1 03 
6F FF EF 29 6E 2A 75 F3 D3 B8 05 B6 33 B7 65 95 B2 85 7C 66 F1 C9 20 47 BA 77 EC E3 E6 81 19 E5 
0F 64 60 53 A9 BB 6A 39 48 02 A8 3B F5 41 53 A9 31 D6 CD A8 23 2F DC A2 D3 37 4C 92 AC 20 4F D5 
92 BF 96 12 9C 22 A5 52 0B 1E 65 65 BF 1C BD 2A D6 73 0C 95 8C D0 04 9F 2D 01 B9 73 E2 D3 9F AE 
DE 35 41 31 62 50 E4 4E A5 C6 1A 64 B7 84 00 6A 19 E4 FE 8D B8 8F 2F 16 F1 D4 5E FF B8 C2 C9 DA 
DA DA 7A B2 FB CA BD 67 9F 29 78 2C B5 42 A5 52 63 02 AE 00 A9 50 5A 4E 7F 4A DA 63 CC 87 72 5E 
56 0F EE F4 69 59 FA 92 4A DD 45 4B 08 A0 96 45 DE AB 2D 71 63 E5 EB 66 CA 88 09 BE A1 DF 1C 30 
52 E7 FD 9D 1B BD 61 1F 43 68 9C B5 DB 66 08 31 33 41 FA 81 42 A5 52 53 46 39 4C 52 FF 3A 29 FE 
D7 4F 02 9D CC 54 1A CB 0B FF 78 CE C5 95 BA EF 37 F8 F4 35 95 5A 55 66 4B 08 A0 96 A5 1F 52 A9 
49 E4 A1 E6 76 B4 51 BA AA 08 69 7C 3A 3B 60 49 EA 6F 69 F9 15 42 1B 0B E2 87 4B F5 91 42 A5 52 
93 75 66 EC FA 7E 43 D4 C1 A8 C5 CE 3B 70 92 F6 D8 29 9F 72 C4 54 DA 08 75 05 3B 69 C9 95 4A 2D 
AB A5 35 04 50 CB 20 6F 39 56 D2 32 33 51 67 3D 79 D9 12 16 89 8B 04 EF 10 65 28 41 E3 D7 FA 87 
82 A5 52 93 A9 96 BE 61 29 57 EE 16 16 16 DE BD 7C D4 47 5B A8 63 37 73 8C F4 C5 E3 60 26 5F 2A 
75 17 2D 21 80 5A 16 B9 AF 22 35 2D 7D 3D F5 8A 0F 45 64 94 BC 69 E6 B3 1E 9F FB 21 AD 76 DC BC 
CF 4D 7A 7E 76 18 84 14 2C 95 5A CC A9 AE 7E CB E1 BC AD 28 3E 1F B3 7E DB 6D AB 90 20 7A 2F 6E 
8E 11 9C DC A9 D4 5D B5 84 00 6A 19 E4 BF 82 D4 B0 0A 3E 1A 4E 0A 8B F5 73 8F 14 92 B4 CC 5D 96 
FF 10 BB 64 E4 A0 7D 6C A7 67 14 2A 95 1A E7 16 45 2C DC 54 C0 27 69 18 5A 3A 7C B1 2F C5 D7 76 
D8 20 BE B7 D5 EF A9 D4 CA 06 5D B4 54 1A A6 F0 01 D4 9D 82 54 EA FE 01 63 32 88 C1 C1 1D 08 90 
4A 0D 00 50 20 50 B6 00 00 04 03 65 0B 00 40 30 50 B6 00 00 04 03 65 0B 00 40 30 50 B6 00 00 04 
03 A9 D4 00 80 0F 03 52 A9 3F 30 78 B4 67 10 83 83 3B 10 20 95 1A 00 A0 40 A0 6C 01 00 08 06 CA 
16 00 80 60 A0 6C 01 00 08 06 CA 16 00 80 60 A0 6C 01 00 08 06 CA 16 00 80 60 A0 6C 01 00 08 06 
CA 16 00 80 60 E4 5E 94 99 F3 DB 1A A7 CD C5 ED 5F 1B B5 EE EC 99 E5 A6 83 31 31 A4 E7 70 5E D9 
E5 E4 C4 33 B9 7F 3C AA 6E C2 10 45 DB 70 F4 78 3B D7 79 4B 17 4E 33 51 7D D3 26 BF 5E 89 6A 46 
9F B5 32 84 E1 3E 5A A5 B2 7D 4A FB 1E 9A 06 12 D6 16 9C 3E 72 EC EC F5 07 D5 3C 44 A6 8E B4 76 
59 E4 C7 98 6F D5 26 46 8A 57 B8 DB CB FF 02 DB D4 EF E7 B4 35 6D 83 5B BB ED D8 02 63 B6 D9 19 
84 54 74 3F 9E EC 15 B0 2D 60 C6 30 E5 76 A9 F1 33 03 4D F2 62 8B 3A F9 35 27 1E B8 9A E8 4C 45 
08 17 56 FF 16 BE 22 9C B7 27 27 CA B6 ED E2 CD B2 5E 27 AC 76 C3 32 EB 68 E6 EE B1 65 29 11 31 
E7 EE 94 56 B0 9A 91 BA 21 6D 36 63 7B D0 4C 53 0A 42 48 54 77 E7 D4 77 71 3F 5F 7F 58 CB 47 48 
69 A8 E1 58 AB A9 73 19 81 DE E6 1A 52 8B 23 B7 3F 04 6A 7A 1F 59 4D 9D E5 BB 72 91 BD 21 A5 AB 
55 94 DF BD 3C EE E3 7B 7D 79 D6 89 D9 FA BD BC F4 E8 F1 DC E8 87 6D F5 47 F7 4E C9 9B 82 DD 1A 
B3 CE 62 B1 58 6F 2B AF EE 70 9D C6 C8 AB FB FF 99 DF 3D 70 DA 27 83 8B D9 77 A2 E7 D3 ED 16 87 
A7 DF 7E CE E4 70 9B EA AB 4B EF E6 24 ED 5C 15 90 5C 26 94 E4 D7 BB ED BB C7 E2 36 B1 99 CF 0B 
92 83 1D 69 6E 7B 8B B9 38 DE 3E A5 1D 17 D5 E4 6C 74 A4 39 05 C4 5D 7E 54 F5 B6 E1 4D 79 51 D6 
81 65 76 34 AF 7D B7 FF 0D 47 C7 D8 37 36 39 B9 87 EE F5 B5 9F 75 E8 71 6B AA 7A F7 1D DB EC 69 
6D E6 52 FA E7 FB 8B D9 02 01 9F CB AE 7D 96 B3 D3 95 E6 16 51 D2 2C 79 F7 DF FD 69 3D CA AF 2E 
05 DA D9 FA E7 BE 92 FC 54 DF 28 C4 70 FE 93 B8 15 EE 0E 53 E8 34 9A FD C6 3F B8 AD 9F 2D EB 75 
C2 91 8E 7D 6F 7B 98 C4 6F AE 46 EF 4D CC 2B 7A 51 FB 96 59 76 2B 7E 95 3D 6D 5E FC 3F 02 1C 17 
3C 8B FB C2 7A 9A 5F FC F5 67 35 0D 6C D6 EB 7F EE 5D 4A DE 1B B4 39 FB B5 A8 C3 A7 B7 CE 87 46 
76 5D E5 A3 1B 69 D1 81 EE D6 76 CB E2 1F 36 61 5D EC 93 F0 C5 B1 79 76 CB B2 98 BD FC 87 D6 9B 
B9 21 EF B6 BA E9 2E 3D AA BD 21 77 D9 6A 47 F0 FC D8 22 7B EF 23 4F F9 32 DE 1F BC DA 8D 09 FF 
F1 A1 59 34 F7 7D 77 39 D2 F3 0E C3 30 C9 34 B5 99 19 F9 E8 FD 20 35 DF FF D6 C5 DA E7 4C 95 08 
6F FF EF 81 57 1C EE 4A 9B F3 FD A3 E6 D6 EE E2 86 5B 3B 9D 68 5F 24 3E 17 4A 7E AC CB 0B 70 5C 
78 FC 39 F3 EA 06 07 B7 B0 7B 2D 85 A1 FB 8E 6D B4 DB 19 8C 5F 75 65 A7 BB 4B 48 5E ED FB 19 D6 
AE 8C 4A 34 15 6C B0 B7 5B 77 AB A9 C3 08 70 EF 6C 9D 31 AD 93 F2 24 EB 75 02 E9 AA 6C B5 D7 94 
BF CE 96 EE 7F 9D 83 8B 6B 33 97 5A 4F DF 7A B7 07 BF B6 D4 7C C0 71 5C FC F6 C6 0E 67 9A 77 DC 
DF 02 1C C7 D8 05 E1 8B 5D A7 D2 69 34 1A CD C6 C5 E7 EB E4 62 B6 18 C7 B9 77 77 38 D3 5A D0 BD 
0F 3F E1 77 DA AC 83 AE E7 46 73 49 C4 E7 53 02 F3 1B 25 6F 08 9F 27 78 DB 2D 3F 5F D7 24 BD AD 
C6 D2 23 5E F4 B9 E1 87 77 2C 73 B3 A1 D1 E8 AE 2B A3 AE D5 BE C3 F1 9E 76 17 C8 18 D5 DE E8 CF 
7B 5B E2 DA BC A8 13 2C 97 D0 A5 E6 0A 9B EC 8A 10 42 48 58 79 ED 3A D3 78 F6 42 CB 0E B1 5B 24 
E9 F4 41 31 E7 59 EE A9 EB F5 C3 E9 96 BA 52 69 37 C2 CA 5B 7F 36 98 CE F2 68 9B 38 48 D6 9A E4 
3D 5D AB FC DA BD 3A 0C 21 84 31 6F A4 3D 1D E5 E3 61 A6 3F 79 89 23 BA 9E 56 CC C1 7B D6 51 9A 
F8 4D DA F2 E9 B6 B6 B6 36 F4 29 B3 37 5F A2 3A BB 9A 2B 4E 5E 58 FF E2 BF BC F3 5C 64 3C D1 98 
82 C8 DA E3 ED 4C B8 D7 0E C5 9C B9 76 BF 8C C9 15 F5 6A 99 15 B2 AE ED 12 CF E1 95 97 AF BE 7A 
87 48 6A A3 BD 36 C5 A6 5E BA 59 50 70 F3 62 8C 57 C3 F1 ED F1 4F 04 48 C3 7A 57 12 63 A4 AA C5 
AE DC 3B 85 85 77 CE 06 8D A3 74 DA 4C 5A EF E7 06 42 48 5D 7A 5B AA 08 21 AC FA 41 9D F9 8A 83 
67 CE 9E 3E E8 25 CC D8 BE FB 12 53 56 A8 59 A7 DD E5 D5 7F 37 A0 30 F6 9F 3F 7C FF F0 D3 75 3F 
DB 74 48 DD 55 30 22 4E 0D 07 69 1B 69 49 C6 96 77 67 FB DC C0 4B 2C 0C 21 A4 6A 1E 70 F2 C4 2A 
33 F4 BE 52 64 90 C4 62 0C E9 58 CE 0F 3B C2 F8 44 3A 0F 55 DC C4 6C 42 54 03 AD F6 D5 4C 89 3A 
82 4A BA F7 A6 49 84 10 F9 D5 AF 19 AF AC 56 3B E8 93 11 F9 B3 45 B3 86 F8 A5 FE 59 6F E7 AA 4B 
EE B6 63 87 69 23 89 C8 1E 4B C1 C5 C2 A6 9A A2 D4 BD DF AC D8 4E CE 88 72 EB 41 14 2C 68 03 63 
FD 1E B3 2D 9D EC 1D B3 68 94 2A 42 C8 7C 6D C2 FF 68 C7 1F FF 65 3F 23 9A 25 44 64 ED D1 93 3F 
5F F2 55 80 D7 B8 21 3D 19 56 65 6D 13 1D 12 BB 86 2D 42 88 32 44 83 99 19 17 9F FF 57 59 D5 5B 
AE 40 28 14 63 35 02 F4 69 87 0B 03 E5 9E 34 EB 76 6E F4 98 AA C5 97 EB 97 38 EA 92 11 1A BD 2A 
C8 F9 6C F0 C5 87 4D 1E F6 BD E8 2F A7 7E 2B 5B CD 4F 93 0F 5C D1 59 9A 32 73 C4 20 0E C9 EB 19 
65 4D 3D 4D EC 7E 39 4B 92 81 AE 6E B5 31 F9 1C 03 13 D5 66 AF F7 CF 13 BC 3F 27 49 2A C5 38 0D 
35 AA AE 8C 60 6A A5 21 7A 9A E8 61 0D 5B 8C FE D3 E6 7D 31 A7 96 83 0F D5 1F A2 8C 84 CF 2F 64 
96 B2 AA B6 CC B4 27 93 10 C2 45 22 31 39 35 BF CE 79 CE B0 EE 3A 76 24 89 C8 1E 4E 41 08 21 43 
93 F5 21 37 72 43 32 EF 37 BA BA 68 29 F8 E9 A7 37 DE D5 5C 3D C0 D8 5D 38 69 4F 42 A8 AD 24 8E 
12 29 EB 59 FB 6E B7 F6 DD 8E 30 41 7D 55 69 71 5E 62 F8 B7 FE 2C FD EC 7D F6 3D 38 AD 8B D8 55 
6C A4 65 A4 AD 2C 7E 9D BD 69 C5 41 AE F7 F6 AD 71 76 63 0C 35 2A 8F 2E F8 F2 3E D6 71 89 3C 99 
CD DA 6F AA BB B9 D1 F1 FA AC 07 94 B5 0D 87 62 E5 0D CD BD 5E B7 4F 0E FD 74 46 15 55 FC 12 91 
CA 77 DF B4 F8 23 85 8E A3 96 50 35 75 98 A6 57 9D 7D A6 90 8D 21 84 48 14 5D 03 43 23 23 A3 11 
DA 6D FE 32 24 A9 14 C3 F4 64 D4 2C 84 90 AA F1 54 3A B5 22 27 AF 8C DF FA 1A CE 79 90 95 CF 19 
E9 48 D3 23 F3 9F FD 92 D3 EC 1A 99 79 3E 3B 2B 2B 2B 2B 2B 3B FB 38 63 D4 D3 B4 CB 55 A2 EE 3A 
76 BB F7 98 18 43 4A 2A 2A D2 5F 67 81 4C 18 A7 E4 A7 90 FF 86 97 CF 3C FC D3 4E 37 03 C9 DF 73 
F1 77 3C 7E 4B EC 37 99 A2 63 F2 99 D3 B2 35 AE BA DC B2 32 76 0F A2 C9 B1 86 C2 D4 0B B5 66 9E 
8E C6 2A CD 7F FF 7A 5F C9 21 C8 DF C3 D2 44 47 5D A9 ED 31 21 91 48 08 6F F9 F2 29 BB 59 3B DD 
CC 0D 12 59 89 2C E6 37 8B 3B 14 A0 76 DB 92 82 F3 99 2F D8 14 03 83 21 7D EB DE 37 FD 52 B6 B0 
BA AB 31 F1 2F 27 05 FB 5B C3 4D 11 84 10 52 1F BF 66 E7 3C B5 F3 1B 56 ED 3E 95 5F 5A C3 E6 36 
B2 AA 4B 0B 6F DD AF EB C1 8C 6D A5 61 E5 17 32 A3 E1 F8 57 9B E2 7F 7B 5C 5D CF 61 55 3E B8 70 
28 68 D3 05 B5 79 A1 0B CC 54 B8 25 E9 57 04 B6 F3 6C 47 0E 7F CF D0 C2 D5 CB A4 2C 33 B7 5C D8 
75 47 84 30 76 C1 01 FF B5 61 97 6A FF DD 1B 1C 17 0B 05 42 A1 A0 B9 89 55 71 2F 23 2A EA 77 CA 
F4 F9 96 43 FA 7F 58 06 25 51 F5 F9 1D BE 01 67 75 02 13 0E 2E 1D AB CC E7 F1 78 3C 9E 40 84 BF 
2B 4F 59 B3 38 38 E6 E7 1B 0F 2B EA 38 8D F5 D5 4F AE FE F8 7D 5E E3 38 8F A9 23 3A FD 7E 23 39 
04 02 1E 87 F9 A2 F8 52 E2 96 2F D7 5F 32 F4 0B F3 19 A5 82 54 F4 3F D6 E5 FE F5 EB ED B2 BA B7 
AF FE BA F8 43 44 7A B5 50 D2 43 79 A8 E1 7F D0 AB 82 C2 2A 2E AF 81 C9 12 EB C9 68 26 A5 EB B9 
A1 A2 3F CE 08 3D C9 3C FF A0 B2 FA E5 FD DC 84 98 F4 0A 61 27 DB E2 E3 08 21 D1 DB 27 25 E5 2C 
2E B7 EE 69 EE E1 C8 5B 5A 9E 4B AC 34 7B DA 5D D6 4D B0 DE E8 87 2F 89 78 53 51 C2 A1 02 83 2F 
CF B8 0C 83 BB 21 12 64 DD 29 5B 4E 9D FC EC 58 62 DA FE D5 31 4C 1E 42 64 AA C9 78 BA FB A6 CD 
73 8C 3B 84 A9 B7 E8 18 5E 3F DC 63 FF 69 AD 94 D8 84 E8 B5 89 4C 3E 22 69 1A 4F 74 09 4C 8C 59 
30 51 8B C4 BE 91 7A 53 44 8F B4 68 F3 24 94 B2 C1 74 77 D3 D8 B4 AC 7F 96 87 58 C8 EC 48 46 08 
21 61 DD A3 C2 22 DE 64 3E 86 90 E4 FB 3C 56 97 B1 DA 29 43 F2 31 1A C6 36 B3 F7 24 31 66 E8 90 
3B EE 8F AC E7 AE F8 25 51 BE FE 19 55 02 91 18 A1 40 47 5B B5 91 BE 89 29 41 9F 50 64 BE 4E 68 
D2 C3 B2 91 9B 77 A5 86 8F E5 84 F9 E4 84 B5 B4 31 0F CD 4E F6 74 F4 75 AE CE 4E 0F 4F 8F AC 17 
22 44 A6 9A 5A BB 05 27 31 E6 9A 75 7E FC 5B 0F 81 AA 8E 99 E5 D4 39 D1 E9 BE 53 8D 28 24 84 28 
63 57 EF 65 54 7E B3 73 E1 59 81 86 A9 9D A7 23 5D E7 49 03 42 08 21 92 CE B4 60 BF 8B A1 7B BC 
67 EC 52 B5 60 A4 24 CA 68 26 4D A9 CB B9 A1 EF B2 75 E3 EF A1 DF AD F6 FE 4E CD 64 EA 02 2F DB 
61 85 15 9D 6C EB E8 34 84 B0 86 BB 09 81 99 1B 6B 85 9A 46 34 AF 3D 71 41 56 1A 3D EE 9E B4 52 
FE AF 64 7D 5C 4B 1E D6 A8 95 02 63 32 88 C1 C1 6D 47 F8 77 DC FC E5 77 FD 2F 1C F3 D0 95 E7 3A 
45 9E 51 85 EB 23 00 00 C1 40 D9 02 00 10 8C 62 FF C7 41 00 40 6F A9 8E 61 64 17 7C D8 5D 80 AB 
2D 00 00 C1 40 D9 02 00 10 0C 94 2D 00 00 C1 F4 F1 01 88 81 D8 15 00 80 42 E9 F3 03 10 FF 0B 38 
42 23 86 91 54 ED 38 00 00 00 00 49 45 4E 44 AE 42 60 82 FF 
EndData
$EndBitmap
Wire Wire Line
	5675 2500 6325 2500
Wire Wire Line
	5675 2250 6325 2250
Wire Wire Line
	4775 2350 4775 2250
Wire Wire Line
	4775 2250 5375 2250
Wire Wire Line
	4775 2950 5325 2950
Connection ~ 5075 2950
Wire Wire Line
	4775 3250 6075 3250
Wire Wire Line
	5325 3250 5325 3400
Wire Wire Line
	4775 3100 4775 3400
Connection ~ 4775 3250
Connection ~ 5075 3250
Wire Wire Line
	4775 2650 5375 2650
Wire Wire Line
	5375 2650 5375 2500
Connection ~ 4875 3250
Wire Wire Line
	4775 2800 5575 2800
Wire Wire Line
	5575 2800 5575 2950
Wire Wire Line
	5575 2950 6075 2950
Connection ~ 5325 3250
Connection ~ 5575 3250
Wire Wire Line
	3175 3550 3175 3400
Wire Wire Line
	2925 2800 3175 2800
Wire Wire Line
	3025 3250 3025 1950
Wire Wire Line
	2625 3250 3175 3250
Connection ~ 3025 3250
Connection ~ 2875 3250
Wire Wire Line
	1275 3550 3175 3550
Connection ~ 2875 3550
Wire Wire Line
	3175 2950 3125 2950
Wire Wire Line
	3125 2950 3125 3550
Connection ~ 3125 3550
Wire Wire Line
	6875 2250 6625 2250
Wire Wire Line
	6625 2500 6875 2500
Wire Wire Line
	6875 2500 6875 2450
Wire Wire Line
	6725 2050 6725 2850
Wire Wire Line
	6725 2350 6875 2350
Connection ~ 3025 2800
Wire Wire Line
	3875 2050 2625 2050
Wire Wire Line
	2625 2850 2625 2050
Connection ~ 2625 3550
Connection ~ 1775 3550
Connection ~ 1525 3550
Wire Wire Line
	1275 3250 1775 3250
Connection ~ 1525 3250
Connection ~ 1775 3250
Wire Wire Line
	1575 2850 2625 2850
Connection ~ 2625 2800
Wire Wire Line
	1575 2750 2475 2750
Wire Wire Line
	2475 2750 2475 3550
Connection ~ 2475 3550
Wire Wire Line
	1575 2650 2525 2650
Wire Wire Line
	2325 3100 3175 3100
Wire Wire Line
	1575 2550 2925 2550
Wire Wire Line
	2925 2550 2925 2650
Wire Wire Line
	2925 2650 3175 2650
Wire Wire Line
	1575 2450 2975 2450
Wire Wire Line
	2975 2450 2975 2500
Wire Wire Line
	2975 2500 3175 2500
Wire Wire Line
	1575 2350 3175 2350
Wire Wire Line
	6325 2050 6275 2050
Wire Wire Line
	6275 2050 6275 2250
Connection ~ 6275 2250
Wire Wire Line
	6325 2700 6275 2700
Wire Wire Line
	6275 2700 6275 2500
Connection ~ 6275 2500
Wire Wire Line
	6625 2050 6725 2050
Connection ~ 6725 2350
Connection ~ 6725 2700
Connection ~ 5825 2950
Connection ~ 5825 3250
Wire Wire Line
	2475 3550 2325 3550
Connection ~ 2325 3550
Wire Wire Line
	2325 3100 2325 3250
Wire Wire Line
	2925 3000 2925 3100
Connection ~ 2925 3100
Wire Wire Line
	2625 3000 2525 3000
Wire Wire Line
	2525 3000 2525 2650
Wire Wire Line
	1775 3250 1775 2850
Connection ~ 1775 2850
Wire Wire Line
	4775 2500 4875 2500
Wire Wire Line
	4875 2500 4875 3250
Wire Wire Line
	4175 2050 5125 2050
Wire Wire Line
	5125 2050 5125 2800
Connection ~ 5125 2800
Wire Wire Line
	4875 1950 4875 2050
Connection ~ 4875 2050
Wire Wire Line
	6625 2700 6875 2700
Wire Wire Line
	6875 2700 6875 2800
Wire Wire Line
	6875 2800 7175 2800
$EndSCHEMATC
